Place,Name,State,WeightClassKg,BodyweightKg,Age,Best3SquatKg,Best3BenchKg,Best3DeadliftKg,TotalKg,Sex,Division,Equipment,Bench4Kg,Event,Tested
1,Samantha Shinavier,MI,56,52.7,20,122.5,72.5,145,340,F,Juniors 20-23,Raw,,SBD,Yes
2,Taylor Hart,MI,56,54.5,22,115,60,142.5,317.5,F,Juniors 20-23,Raw,,SBD,Yes
1,Izzy Gallo,OH,60,59.7,17,115,52.5,112.5,280,F,Juniors 16-17,Raw,,SBD,Yes
1,Antoinette Iwuagwu,OH,60,57.8,20,140,67.5,150,357.5,F,Juniors 20-23,Raw,,SBD,Yes
1,Sadaf Asghar,MI,67.5,62.1,23,117.5,65,147.5,330,F,Juniors 20-23,Raw,,SBD,Yes
2,Renee Genovesi,,67.5,64.4,20,107.5,60,137.5,305,F,Juniors 20-23,Raw,,SBD,Yes
3,Alexis Strauss,MI,67.5,64.2,20,115,57.5,130,302.5,F,Juniors 20-23,Raw,,SBD,Yes
DQ,Renee Genovesi,MI,67.5,64.4,20,,,,,F,Juniors 20-23,Raw,,SBD,Yes
1,Katy Oprita,MI,82.5,76,13,102.5,57.5,107.5,267.5,F,Juniors 13-15,Raw,,SBD,Yes
1,Samantha Shinavier,MI,56,52.7,20,122.5,72.5,145,340,F,Open,Raw,,SBD,Yes
2,Taylor Hart,MI,56,54.5,22,115,60,142.5,317.5,F,Open,Raw,,SBD,Yes
1,Antoinette Iwuagwu,OH,60,57.8,20,140,67.5,150,357.5,F,Open,Raw,,SBD,Yes
1,Chandler Babb,MI,67.5,66.6,26,155,95,207.5,457.5,F,Open,Raw,,SBD,Yes
2,Charsell Kincaid,MI,67.5,66.2,51,125,60,160,345,F,Open,Raw,,SBD,Yes
3,Alexis Levin,OH,67.5,64.2,26,127.5,65,145,337.5,F,Open,Raw,,SBD,Yes
4,Sadaf Asghar,MI,67.5,62.1,23,117.5,65,147.5,330,F,Open,Raw,,SBD,Yes
5,Alexis Strauss,MI,67.5,64.2,20,115,57.5,130,302.5,F,Open,Raw,,SBD,Yes
6,Erin Mcgarry,OH,67.5,62.1,28,105,52.5,125,282.5,F,Open,Raw,,SBD,Yes
1,Jenna Stoddard,MI,75,74.8,26,145,72.5,180,397.5,F,Open,Raw,,SBD,Yes
2,Veronica Castorena,MI,75,71.2,32,115,82.5,140,337.5,F,Open,Raw,,SBD,Yes
3,Elizabeth Taylor,MI,75,74.4,26,122.5,67.5,140,330,F,Open,Raw,,SBD,Yes
4,Genevieve Fischre,MI,75,72.8,32,107.5,60,145,312.5,F,Open,Raw,,SBD,Yes
5,Savannah Hoffman,MI,75,71.7,26,105,50,137.5,292.5,F,Open,Raw,,SBD,Yes
1,Jillian Clark,MI,82.5,78.7,29,162.5,95,167.5,425,F,Open,Raw,,SBD,Yes
2,Danielle Valentine,MI,82.5,81.2,41,125,65,152.5,342.5,F,Open,Raw,,SBD,Yes
1,Rachel Krajkowski,MI,90,84.4,27,117.5,65,125,307.5,F,Open,Raw,,SBD,Yes
1,Tori Miteen,MI,90+,97.9,33,147.5,70,160,377.5,F,Open,Raw,,SBD,Yes
1,Charsell Kincaid,MI,67.5,66.2,51,125,60,160,345,F,Masters 50-54,Raw,,SBD,Yes
1,Danielle Valentine,MI,82.5,81.2,41,125,65,152.5,342.5,F,Masters 40-44,Raw,,SBD,Yes
1,Aaron Babet,OH,56,54.6,14,137.5,77.5,155,370,M,Juniors 13-15,Raw,,SBD,Yes
1,Nick Juhas,OH,82.5,77.9,18,177.5,112.5,235,525,M,Juniors 18-19,Raw,,SBD,Yes
1,Anthony Bronaugh,OH,90,86.9,22,200,140,272.5,612.5,M,Juniors 20-23,Raw,,SBD,Yes
2,John Winterfeld,OH,90,88.4,22,197.5,147.5,240,585,M,Juniors 20-23,Raw,,SBD,Yes
3,Matt Moore,OH,90,88.6,22,175,110,215,500,M,Juniors 20-23,Raw,,SBD,Yes
1,Martin Cunningham,OH,100,95.8,22,180,137.5,200,517.5,M,Juniors 20-23,Raw,,SBD,Yes
1,Anthony Clark,MI,140,139.3,20,285,172.5,327.5,785,M,Juniors 20-23,Raw,,SBD,Yes
1,Joshua Bane,MI,67.5,65,31,162.5,122.5,215,500,M,Open,Raw,,SBD,Yes
2,Jimmy Schroader,MI,67.5,66.5,27,150,120,190,460,M,Open,Raw,,SBD,Yes
DQ,Dakota Dore,MI,67.5,66.8,24,,105,162.5,,M,Open,Raw,,SBD,Yes
1,Christopher Fortune,OH,75,73.1,28,205,120,247.5,572.5,M,Open,Raw,,SBD,Yes
2,Evan Gregory,MI,75,74.9,25,190,125,210,525,M,Open,Raw,,SBD,Yes
3,Todd Lieberman,MI,75,73.7,33,145,115,215,475,M,Open,Raw,,SBD,Yes
4,Andrew Burley,MI,75,74.7,25,155,92.5,192.5,440,M,Open,Raw,,SBD,Yes
1,Jonathan Ebbert,OH,90,89.4,28,240,172.5,257.5,670,M,Open,Raw,,SBD,Yes
2,Derek Betts,MI,90,88.5,29,222.5,155,270,647.5,M,Open,Raw,,SBD,Yes
3,Anthony Bronaugh,OH,90,86.9,22,200,140,272.5,612.5,M,Open,Raw,,SBD,Yes
4,John Winterfeld,OH,90,88.4,22,197.5,147.5,240,585,M,Open,Raw,,SBD,Yes
5,Brandon Burt,MI,90,89.7,30,202.5,165,202.5,570,M,Open,Raw,,SBD,Yes
6,Jonathan Parfejewiec,OH,90,87.5,22,205,127.5,235,567.5,M,Open,Raw,,SBD,Yes
7,Nathan Albright,OH,90,89.6,25,175,150,217.5,542.5,M,Open,Raw,,SBD,Yes
1,Conan Stoehr Jr,MI,100,94.4,22,235,135,260,630,M,Open,Raw,,SBD,Yes
2,Florideo Passarelli,MI,100,97.9,25,220,142.5,235,597.5,M,Open,Raw,,SBD,Yes
3,Andrew Paul,MI,100,96,25,202.5,130,222.5,555,M,Open,Raw,,SBD,Yes
4,Michael Richards,OH,100,94.5,26,195,140,192.5,527.5,M,Open,Raw,,SBD,Yes
1,Chris Bucuren,MI,110,107.2,32,240,147.5,265,652.5,M,Open,Raw,,SBD,Yes
1,David Grabowski,MI,125,111,33,225,172.5,255,652.5,M,Open,Raw,,SBD,Yes
2,Jason Stock,MI,125,114.8,42,205,160,220,585,M,Open,Raw,,SBD,Yes
DQ,Chris Hockemeyer,MI,125,116.1,30,,170,282.5,,M,Open,Raw,,SBD,Yes
1,Tyler Griffeth,MI,140,132.3,30,272.5,190,287.5,750,M,Open,Raw,,SBD,Yes
1,Bob Jacobson,MI,100,96.7,61,115,128,150,393,M,Masters 60-64,Raw,137.5,SBD,Yes
1,Jason Stock,MI,125,114.8,42,205,160,220,585,M,Masters 40-44,Raw,,SBD,Yes
1,Tyler Litten,OH,82.5,81.5,17,160,97.5,215,472.5,M,Juniors 16-17,Wraps,,SBD,Yes
1,Tyler Litten,OH,82.5,81.5,17,160,97.5,215,472.5,M,Open,Wraps,,SBD,Yes
1,Chris Wood,MI,90,89.3,32,265,150,237.5,652.5,M,Open,Wraps,,SBD,Yes
1,Corey Dennis,MI,100,95.9,26,245,155,275,675,M,Open,Wraps,,SBD,Yes
1,Andrew Valenti,MI,110,108.3,24,235,135,227.5,597.5,M,Open,Wraps,,SBD,Yes
DQ,Robert Handler,MI,110,108.4,24,,175,285,,M,Open,Wraps,,SBD,Yes
1,Emily Serbinowski,OH,67.5,64.6,23,,60,,60,F,Juniors 20-23,Raw,,B,Yes
1,Brianna Melnychenko,MI,90,83.9,16,,50,,50,F,Juniors 16-17,Raw,,B,Yes
1,Lacey Johnson,MI,67.5,61.3,26,,70,,70,F,Open,Raw,,B,Yes
2,Emily Serbinowski,OH,67.5,64.6,23,,60,,60,F,Open,Raw,,B,Yes
1,Veronica Castorena,MI,75,71.2,32,,82.5,,82.5,F,Open,Raw,,B,Yes
1,Kenny Nonthaweth,MI,67.5,65,37,,135,,135,M,Open,Raw,,B,Yes
1,Bobby Body,MI,90,88.2,44,,197.5,,197.5,M,Open,Raw,,B,Yes
1,David Grabowski,MI,125,111,33,,172.5,,172.5,M,Open,Raw,,B,Yes
1,Kenny Nonthaweth,MI,67.5,65,37,,135,,135,M,Submasters 35-39,Raw,,B,Yes
1,James Spencer,AZ,82.5,78.6,64,,111,,111,M,Masters 60-64,Raw,112.5,B,Yes
1,Bobby Body,MI,90,88.2,44,,197.5,,197.5,M,Masters 40-44,Raw,,B,Yes
1,Bob Jacobson,MI,100,96.7,61,,128,,128,M,Masters 60-64,Raw,137.5,B,Yes
1,Ross Arnold,MI,110,108.4,71,,135,,135,M,Masters 70-74,Raw,137.5,B,Yes
1,Kevin Goins,MI,82.5,81.2,37,,,260,260,M,Open,Raw,,D,Yes
1,Kevin Goins,MI,82.5,81.2,37,,,260,260,M,Submasters 35-39,Raw,,D,Yes
1,Bob Jacobson,MI,100,96.7,61,,,150,150,M,Masters 60-64,Raw,,D,Yes
1,Paula Kiel,MI,90,86.5,41,,42.5,82.5,125,F,Open,Raw,,BD,Yes
1,Paula Kiel,MI,90,86.5,41,,42.5,82.5,125,F,Masters 40-44,Raw,,BD,Yes
1,Tyler Griffeth,MI,140,132.3,30,,190,287.5,477.5,M,Open,Raw,,BD,Yes
1,James Spencer,AZ,82.5,78.6,64,,111,150,261,M,Masters 60-64,Raw,112.5,BD,Yes
