Place,Name,WeightClassKg,Sex,Tested,Equipment,Event,Division,BirthDate,Age,BodyweightKg,Country,Squat1Kg,Squat2Kg,Squat3Kg,Squat4Kg,Best3SquatKg,Bench1Kg,Bench2Kg,Bench3Kg,Bench4Kg,Best3BenchKg,Deadlift1Kg,Deadlift2Kg,Deadlift3Kg,Deadlift4Kg,Best3DeadliftKg,TotalKg
1,Irina Briukhanova,56,F,No,Raw,SBD,Open,1984-12-06,33,55.2,Russia,90,95,100,,100,67.5,72.5,75,,75,110,120,125,,125,300
1,Marina Beliak,56,F,No,Raw,SBD,Masters 50-54,1967-11-28,50,55.7,Russia,-50,50,55,,55,35,40,-42.5,,40,72.5,77.5,82.5,,82.5,177.5
1,Tatiana Grafova,60,F,No,Raw,SBD,Open,1981-11-09,36,59.5,Russia,125,-130,-132.5,,125,65,70,72.5,,72.5,140,145,150,,150,347.5
1,Anastasiia Marchenko,75,F,No,Raw,SBD,Open,1988-01-13,29,74.2,Russia,-160,-160,160,,160,85,92.5,100,,100,160,170,180,,180,440
1,Sergei Luchinskii,60,M,No,Raw,SBD,Open,1987-08-08,30,59.2,Russia,170,-180,190,,190,100,105,110,,110,175,185,195,,195,495
1,Ali Sahabi,75,M,No,Raw,SBD,Teen 15-19,1999-09-15,18,71.9,Iran,110,-130,130,,130,80,90,-100,,90,-175,175,195,,195,415
1,Shahram Afrasiabi,75,M,No,Raw,SBD,Open,1986-08-09,31,70.9,Iran,100,110,-120,,110,-95,95,100,,100,-150,150,165,,165,375
DQ,Aleksandr Gubanov,75,M,No,Raw,SBD,Masters 65-69,1951-02-06,66,74.3,Russia,-60,-60,-60,,,,,,,,,,,,,
1,Nikita Repin,82.5,M,No,Raw,SBD,Juniors 20-23,1995-02-20,22,81.5,Russia,215,-230,-230,,215,130,137.5,-142.5,,137.5,-200,200,225,,225,577.5
1,Aleksey Nikulin,82.5,M,No,Raw,SBD,Open,1982-11-01,35,80.1,Russia,330,-345,-345,,330,170,177.5,-182.5,,177.5,290,-300,-300,,290,797.5
2,Vladislav Stroev,82.5,M,No,Raw,SBD,Open,1995-05-31,22,82,Russia,200,215,230,,230,130,142.5,147.5,,147.5,260,275,285,,285,662.5
1,Aleksandr Cherednichenko,90,M,No,Raw,SBD,Open,1991-02-04,26,89.2,Russia,242.5,252.5,260,,260,170,175,180,,180,280,-295,-295,,280,720
2,Aleksei Sheikin,90,M,No,Raw,SBD,Open,1988-03-24,29,89.3,Belarus,235,245,250,,250,175,180,185,,185,-280,280,-300,,280,715
3,Eduard Annenkov,90,M,No,Raw,SBD,Open,1988-05-03,29,90,Russia,225,235,240,,240,170,-175,175,,175,245,255,260,,260,675
4,Roman Malushev,90,M,No,Raw,SBD,Open,1978-08-20,39,89.4,Russia,205,220,227.5,,227.5,160,170,175,,175,240,252.5,260,,260,662.5
5,Aleksei Schekunov,90,M,No,Raw,SBD,Open,1984-07-17,33,89,Russia,-200,200,210,,210,170,180,185,,185,242.5,255,260,,260,655
6,Sergei Khitrov,90,M,No,Raw,SBD,Open,1979-10-01,38,86.6,Russia,200,210,212.5,,212.5,160,-165,165,,165,240,260,270,,270,647.5
7,Aleksandr Kireev,90,M,No,Raw,SBD,Open,1992-07-25,25,86.8,Russia,-200,200,-210,,200,160,-170,-170,,160,270,-277.5,-277.5,,270,630
1,Sergei Popov,100,M,No,Raw,SBD,Juniors 20-23,1995-08-15,22,99.2,Russia,250,-265,275,,275,185,195,205,,205,255,265,275,,275,755
2,Vladimir Rughenkov,100,M,No,Raw,SBD,Juniors 20-23,1996-05-12,21,94.8,Russia,230,240,252.5,,252.5,130,140,145,,145,240,250,260,,260,657.5
DQ,Ivan Pezikov,100,M,No,Raw,SBD,Juniors 20-23,1994-04-24,23,98.1,Russia,265,272.5,-280,,272.5,-167.5,-167.5,-167.5,,,,,,,,
1,Sergei Popov,100,M,No,Raw,SBD,Open,1995-08-15,22,99.2,Russia,250,-265,275,,275,185,195,205,,205,255,265,275,,275,755
2,Iurii Sakharov,100,M,No,Raw,SBD,Open,1986-12-07,31,97.1,Russia,-260,260,-272.5,,260,150,-160,-160,,150,260,270,280,,280,690
3,Andrei Prokhorenko,100,M,No,Raw,SBD,Open,1986-03-13,31,96.3,Russia,230,-240,240,,240,160,167.5,172.5,,172.5,270,-290,-302.5,,270,682.5
4,Ilia Ershov,100,M,No,Raw,SBD,Open,1988-10-20,29,99.2,Russia,220,230,237.5,,237.5,167.5,177.5,182.5,,182.5,240,255,-265,,255,675
5,Sergei Moiseev,100,M,No,Raw,SBD,Open,1977-08-24,40,99.4,Russia,220,230,235,,235,150,-160,160,,160,250,270,-282.5,,270,665
6,Nikolai Zamp,100,M,No,Raw,SBD,Open,1990-03-02,27,97.1,Russia,220,235,-242.5,,235,140,-150,-150,,140,240,250,260,,260,635
1,Dmitrii Grinev,100,M,No,Raw,SBD,Masters 40-44,1977-05-16,40,94.2,Russia,-210,210,230,,230,-150,170,,,170,250,275,-280,,275,675
2,Sergei Iziumskii,100,M,No,Raw,SBD,Masters 40-44,1973-03-27,44,96.2,Russia,200,210,-220,,210,150,160,170,,170,210,225,235,,235,615
1,Mikhail Sekov,110,M,No,Raw,SBD,Open,1986-09-01,31,110,Russia,270,290,-300,,290,190,200,205,,205,-300,310,-315,,310,805
2,Kirill Kovalenko,110,M,No,Raw,SBD,Open,1992-05-11,25,108.2,Russia,-270,280,290,,290,190,195,-200,,195,290,300,315,,315,800
3,David Sichinava,110,M,No,Raw,SBD,Open,1991-09-18,26,105.1,Russia,230,235,240,,240,-180,180,182.5,,182.5,260,270,277.5,,277.5,700
4,Aleksandr Luzanov,110,M,No,Raw,SBD,Open,1993-09-30,24,108.4,Russia,235,-245,-245,,235,155,165,170,,170,275,-280,,,275,680
5,Abbas Mousanezhad,110,M,No,Raw,SBD,Open,1986-09-21,31,101.8,Iran,-180,-180,180,,180,150,165,170,,170,200,220,-240,,220,570
DQ,Nejad Faraj,110,M,No,Raw,SBD,Open,1981-09-16,36,107.5,Iran,-240,-250,-250,,,,,,,,,,,,,
DQ,Farajnejad Aref,110,M,No,Raw,SBD,Open,1977-12-03,40,108.8,Iran,-220,-240,-260,,,,,,,,,,,,,
1,Mikhail Tikhomirov,110,M,No,Raw,SBD,Masters 40-44,1974-03-03,43,103.3,Russia,-215,-215,220,,220,135,145,-150,,145,230,245,-265,,245,610
1,Sergei Luchenkov,125,M,No,Raw,SBD,Open,1977-05-24,40,124.9,Russia,265,280,292.5,,292.5,190,202.5,207.5,,207.5,300,320,325,,325,825
2,Aleksandr Sharov,125,M,No,Raw,SBD,Open,1983-09-03,34,113.6,Russia,260,270,-280,,270,190,205,-210,,205,-280,290,-300,,290,765
3,Igor Sharapov,125,M,No,Raw,SBD,Open,1971-10-30,46,115.3,Russia,255,265,270,,270,185,-195,195,,195,265,275,-280,,275,740
1,Igor Sharapov,125,M,No,Raw,SBD,Masters 45-49,1971-10-30,46,115.3,Russia,255,265,270,,270,185,-195,195,,195,265,275,-280,,275,740
1,Igor Alferov,140,M,No,Raw,SBD,Masters 40-44,1976-04-02,41,134,Russia,-225,225,-235,,225,155,160,-165,,160,230,-245,245,,245,630
1,Aleksei Kazantsev,140+,M,No,Raw,SBD,Masters 40-44,1975-07-08,42,150.4,Russia,-190,190,200,,200,110,117.5,-125,,117.5,190,205,220,,220,537.5
1,Mariia Mokrinskaia,56,F,No,Wraps,SBD,Juniors 20-23,1995-11-19,22,55.6,Russia,115,122.5,130,,130,65,70,75,,75,120,130,135,,135,340
1,Daria Cherniak,67.5,M,No,Wraps,SBD,Juniors 20-23,1996-01-09,21,64.5,Russia,150,165,175,185,175,85,95,100,,100,140,155,165,,165,440
1,Daniil Poddubnui,75,M,No,Wraps,SBD,Open,1994-04-10,23,74.2,Russia,232.5,-250,-250,,232.5,155,162.5,-170,,162.5,240,260,-272.5,,260,655
1,Aleksey Nikulin,82.5,M,No,Wraps,SBD,Open,1982-11-01,35,80.1,Russia,330,-345,-345,,330,170,177.5,-182.5,,177.5,290,-300,-300,,290,797.5
2,Denis Ilichiov,82.5,M,No,Wraps,SBD,Open,1987-12-01,30,82.4,Russia,210,-220,-220,,210,155,165,,,165,200,-245,-245,,200,575
1,Maksim Nurutdinov,90,M,No,Wraps,SBD,Open,1982-07-28,35,85.6,Russia,300,320,-337.5,,320,160,170,180,,180,290,310,,,310,810
2,Aleksei Markin,90,M,No,Wraps,SBD,Open,1986-07-08,31,89.1,Russia,270,285,295,,295,160,167.5,172.5,,172.5,240,250,-252.5,,250,717.5
3,Sergei Starov,90,M,No,Wraps,SBD,Open,1986-04-23,31,89.6,Russia,-240,240,-260,,240,160,170,-180,,170,250,-270,270,,270,680
4,Maksim Amanatov,90,M,No,Wraps,SBD,Open,1990-10-13,27,89.3,Russia,220,,,,220,150,160,-165,,160,275,-285,-285,,275,655
5,Georgii Mashurov,90,M,No,Wraps,SBD,Open,1982-11-05,35,87.9,Russia,200,-210,220,,220,130,140,-150,,140,210,,,,210,570
DQ,Arkadiy Shalokha,90,M,No,Wraps,SBD,Open,1983-02-28,34,87.3,Ukraine,320,335,-350,,335,180,190,-200,,190,-285,-285,,,,
1,Egor Petrov,100,M,No,Wraps,SBD,Juniors 20-23,1996-05-09,21,95.2,Russia,235,245,260,,260,145,152.5,160,,160,260,275,285,,285,705
2,Ruslan Noskov,100,M,No,Wraps,SBD,Juniors 20-23,1994-12-14,23,99.5,Russia,250,260,-265,,260,150,160,-170,,160,260,275,-285,,275,695
3,Konstantin Petunov,100,M,No,Wraps,SBD,Juniors 20-23,1994-12-20,22,97.8,Russia,230,247.5,-260,,247.5,135,142.5,-147.5,,142.5,255,272.5,287.5,,287.5,677.5
1,Rustam Raimov,100,M,No,Wraps,SBD,Open,1992-01-21,25,97.2,Russia,280,300,-312.5,,300,167.5,180,,,180,280,295,-310,,295,775
2,Ivan Dmitriev,100,M,No,Wraps,SBD,Open,1970-06-11,47,99.4,Russia,250,-265,265,,265,150,160,165,,165,280,300,320,,320,750
3,Vasilii Vitovskii,100,M,No,Wraps,SBD,Open,1960-01-06,57,94.9,Russia,230,245,255,,255,155,165,175,,175,240,-255,255,,255,685
1,Ivan Dmitriev,100,M,No,Wraps,SBD,Masters 45-49,1970-06-11,47,99.4,Russia,250,-265,265,,265,150,160,165,,165,280,300,320,,320,750
2,Gholamrezaei Arash,100,M,No,Wraps,SBD,Masters 45-49,1971-03-01,46,93.6,Iran,-200,-200,220,,220,140,155,-162.5,,155,,220,240,,240,615
3,Vadim Anischenko,100,M,No,Wraps,SBD,Masters 45-49,1971-03-29,46,95.3,Russia,170,190,200,,200,125,130,-135,,130,220,-230,,,220,550
1,Valerii Asaturov,100,M,No,Wraps,SBD,Masters 50-54,1966-10-10,51,99.2,Russia,-260,260,-270,,260,170,175,-180,,175,260,270,-275,,270,705
1,Vasilii Vitovskii,100,M,No,Wraps,SBD,Masters 55-59,1960-01-06,57,94.9,Russia,230,245,255,,255,155,165,175,,175,240,-255,255,,255,685
1,Vladislav Karmanov,110,M,No,Wraps,SBD,Teen 15-19,1998-03-23,19,108.4,Russia,220,-230,-230,,220,160,167.5,172.5,,172.5,-220,225,235,,235,627.5
1,Vadim Loghechkin,110,M,No,Wraps,SBD,Open,1984-07-12,33,105.1,Belarus,-285,285,,,285,200,210,-215,,210,285,295,305,,305,800
2,Daniil Koniukhov,110,M,No,Wraps,SBD,Open,1993-04-12,24,107.6,Russia,265,275,,,275,-177.5,180,185,,185,270,280,285,,285,745
3,Artem Milashevskii,110,M,No,Wraps,SBD,Open,1983-03-29,34,107,Russia,265,275,-285,,275,160,175,185,,185,265,280,-290,,280,740
4,Andrei Pavlov,110,M,No,Wraps,SBD,Open,1980-04-12,37,101.4,Russia,290,,,,290,150,160,165,,165,250,270,-280,,270,725
5,Pavel Petrakov,110,M,No,Wraps,SBD,Open,1990-04-23,27,108.7,Russia,235,250,260,,260,165,172.5,177.5,,177.5,270,-282.5,282.5,,282.5,720
6,Dmitrii Zaplavskii,110,M,No,Wraps,SBD,Open,1984-09-17,33,108.6,Russia,200,217.5,230,,230,140,-152.5,152.5,,152.5,245,255,-267.5,,255,637.5
1,Ilia Ushkov,110,M,No,Wraps,SBD,Masters 40-44,1976-06-21,41,104.9,Russia,282.5,-297.5,-297.5,,282.5,172.5,-177.5,-180,,172.5,257.5,267.5,272.5,,272.5,727.5
2,Farajnejad Aref,110,M,No,Wraps,SBD,Masters 40-44,1977-12-03,40,107,Iran,200,240,-260,,240,145,155,165,,165,230,250,-260,,250,655
1,Daniil Mikitas,125,M,No,Wraps,SBD,Open,1991-06-26,26,110.8,Russia,260,-272.5,272.5,,272.5,170,180,-190,,180,270,285,290,,290,742.5
2,Andrei Zolotarenok,125,M,No,Wraps,SBD,Open,1978-11-23,39,111.5,Russia,-230,230,245,,245,160,170,180,,180,220,235,250,,250,675
DQ,Aleksei Lenin,125,M,No,Wraps,SBD,Open,1988-01-17,29,116.3,Russia,300,-310,310,,310,-180,-180,-180,,,,,,,,
1,Razmik Khudunts,140,M,No,Wraps,SBD,Juniors 20-23,1995-10-07,22,125.9,Russia,-350,350,-370,,350,220,240,-250,,240,300,-320,-320,,300,890
1,Sergei Odegov,140,M,No,Wraps,SBD,Open,1976-10-02,41,135.4,Russia,-330,-330,330,,330,200,212.5,-217.5,,212.5,330,-350,-350,,330,872.5
1,Sergei Odegov,140,M,No,Wraps,SBD,Masters 40-44,1976-10-02,41,135.4,Russia,-330,-330,330,,330,200,212.5,-217.5,,212.5,330,-350,-350,,330,872.5
DQ,Ruslan Petrushkin,140+,M,No,Wraps,SBD,Open,1984-08-24,33,157.9,Russia,-280,-280,-280,,,,,,,,,,,,,
1,Anna Morozova,75,F,No,Single-ply,SBD,Open,1992-05-26,25,72.2,Russia,150,165,-170,,165,72.5,80,-85,,80,140,152.5,-157.5,,152.5,397.5
1,Haydarzade Marjan,90,F,No,Single-ply,SBD,Open,1982-05-04,35,85.4,Iran,-100,-110,110,,110,47.5,-50,-50,,47.5,115,-130,-140,,115,272.5
1,Egor Savelev,67.5,M,No,Single-ply,SBD,Juniors 20-23,1995-11-30,22,67.3,Russia,150,165,175,,175,120,132.5,138,142.5,138,160,172.5,180,-185,180,493
1,Vladimir Beliakhin,67.5,M,No,Single-ply,SBD,Open,1989-05-19,28,67.5,Russia,280,-295,295,300,295,195,210,-225,,210,185,200,-220,,200,705
1,Aleksey Nikulin,82.5,M,No,Single-ply,SBD,Open,1982-11-01,35,80.1,Russia,330,-345,-345,,330,170,177.5,-182.5,,177.5,290,-300,-300,,290,797.5
1,Aleksandr Kozlov,90,M,No,Single-ply,SBD,Open,1994-08-28,23,89.6,Russia,310,-330,-330,,310,195,205,207.5,,207.5,-280,280,-300,,280,797.5
1,Kirill Anfinogenov,100,M,No,Single-ply,SBD,Teen 15-19,1998-03-06,19,100,Russia,302.5,-315,-320,,302.5,220,230,-240,,230,280,302.5,-317.5,,302.5,835
1,Roman Zverev,100,M,No,Single-ply,SBD,Open,1988-05-15,29,99.2,Russia,320,340,355,,355,190,200,-205,,200,315,325,-335,,325,880
2,Kirill Anfinogenov,100,M,No,Single-ply,SBD,Open,1998-03-06,19,100,Russia,302.5,-315,-320,,302.5,220,230,-240,,230,280,302.5,-317.5,,302.5,835
1,Ivan Chikin,110,M,No,Single-ply,SBD,Juniors 20-23,1994-09-09,23,109.4,Russia,-215,225,-250,,225,100,110,-120,,110,190,212.5,-227.5,,212.5,547.5
1,Roman Darnitskii,125,M,No,Single-ply,SBD,Open,1999-09-02,18,111.5,Russia,300,-315,315,,315,235,242.5,-250,,242.5,280,300,305,,305,862.5
1,Dmitrii Kochevatkin,90,M,No,Multi-ply,SBD,Open,1976-02-18,41,89.9,Russia,-280,-290,290,,290,-205,-205,205,,205,210,225,-240,,225,720
1,Dmitrii Kochevatkin,90,M,No,Multi-ply,SBD,Masters 40-44,1976-02-18,41,89.9,Russia,-280,-290,290,,290,-205,-205,205,,205,210,225,-240,,225,720
1,Oksana Kuznetsova,52,F,No,Raw,BD,Open,1990-07-07,27,52,Russia,,,,,,70,72.5,-77.5,,72.5,120,-130,130,,130,202.5
1,Nikolai Sokolov,82.5,M,No,Raw,BD,Open,1985-10-28,32,77,Russia,,,,,,140,150,160,,160,275,290,305,,305,465
1,Aleksei Sheikin,90,M,No,Raw,BD,Open,1988-03-24,29,89.3,Belarus,,,,,,175,180,185,,185,-280,280,-300,,280,465
2,Roman Malushev,90,M,No,Raw,BD,Open,1978-08-20,39,89.4,Russia,,,,,,160,170,175,,175,240,252.5,260,,260,435
1,Sergei Moiseev,100,M,No,Raw,BD,Open,1977-08-24,40,99.4,Russia,,,,,,150,-160,160,,160,250,270,-282.5,,270,430
2,Evgenii Bukhalko,100,M,No,Raw,BD,Open,1984-05-08,33,98.8,Belarus,,,,,,150,155,-157.5,,155,-200,200,205,,205,360
1,Stanislav Kulikov,100,M,No,Single-ply,BD,Open,1978-11-29,39,99.6,Russia,,,,,,230,240,-252.5,,240,300,320,-330,,320,560
1,Elena Lukashik,56,F,No,Raw,B,Juniors 20-23,1996-06-14,21,54.7,Russia,,,,,,47.5,52.5,-55,,52.5,,,,,,52.5
1,Elena Lukashik,56,F,No,Raw,B,Open,1996-06-14,21,54.7,Russia,,,,,,47.5,52.5,-55,,52.5,,,,,,52.5
1,Elena Vinogradova,75,F,No,Raw,B,Open,1986-02-03,31,74.5,Russia,,,,,,100,-110,-110,,100,,,,,,100
1,Sergei Agapov,67.5,M,No,Raw,B,Open,1988-11-17,29,66.5,Russia,,,,,,155,-167.5,-167.5,,155,,,,,,155
2,Igor Kuchin,67.5,M,No,Raw,B,Open,1967-06-11,50,67.5,Russia,,,,,,145,155,-157.5,,155,,,,,,155
1,Dmitrii Volkov,75,M,No,Raw,B,Open,1982-05-04,35,73.5,Russia,,,,,,140,150,155,,155,,,,,,155
2,Artur Minasian,75,M,No,Raw,B,Open,1988-02-09,29,74,Russia,,,,,,140,,,,140,,,,,,140
3,Shahram Afrasiabi,75,M,No,Raw,B,Open,1986-08-09,31,70.9,Iran,,,,,,-95,95,100,,100,,,,,,100
1,Pavel Galkin,82.5,M,No,Raw,B,Open,1987-05-01,30,80.1,Russia,,,,,,160,165,-170,,165,,,,,,165
1,Vadim Kolodiaghnui,82.5,M,No,Raw,B,Masters 45-49,1969-06-05,48,82,Russia,,,,,,150,165,-170,,165,,,,,,165
1,Dmitrii Bakhteev,82.5,M,No,Raw,B,Masters 50-54,1966-08-25,51,81.1,Russia,,,,,,-115,117.5,122.5,,122.5,,,,,,122.5
1,Sergei Pismennui,82.5,M,No,Raw,B,Masters 65-69,1952-12-12,65,76.5,Russia,,,,,,115,120,122.5,,122.5,,,,,,122.5
1,Bogdan Lukianov,90,M,No,Raw,B,Teen 15-19,1998-10-02,19,88.7,Russia,,,,,,105,115,-122.5,,115,,,,,,115
1,Artur Sharafislamov,90,M,No,Raw,B,Juniors 20-23,1996-01-20,21,89.2,Russia,,,,,,185,-195,195,-198,195,,,,,,195
2,Aleksei Belov,90,M,No,Raw,B,Juniors 20-23,1994-07-14,23,87.5,Russia,,,,,,187.5,-195,-195,,187.5,,,,,,187.5
1,Artur Sharafislamov,90,M,No,Raw,B,Open,1996-01-20,21,89.2,Russia,,,,,,185,-195,195,-198,195,,,,,,195
2,Aleksandr Kireev,90,M,No,Raw,B,Open,1992-07-25,25,86.8,Russia,,,,,,160,-170,-170,,160,,,,,,160
3,Aleksandr Abushik,90,M,No,Raw,B,Open,1991-08-04,26,87.2,Russia,,,,,,140,152.5,-160,,152.5,,,,,,152.5
4,Konstantin Reshetnik,90,M,No,Raw,B,Open,1987-03-10,30,89.5,Russia,,,,,,-132.5,135,-152.5,,135,,,,,,135
1,Rustam Begerin,100,M,No,Raw,B,Juniors 20-23,1994-06-12,23,96.5,Russia,,,,,,205,-215,215,,215,,,,,,215
2,Sergei Popov,100,M,No,Raw,B,Juniors 20-23,1995-08-15,22,99.2,Russia,,,,,,185,195,205,,205,,,,,,205
1,Vadim Rezvukh,100,M,No,Raw,B,Open,1987-10-09,30,99.6,Russia,,,,,,-235,235,-245,,235,,,,,,235
2,Iaroslav Gromuko,100,M,No,Raw,B,Open,1991-07-25,26,100,Belarus,,,,,,-205,205,-212.5,,205,,,,,,205
3,Aleksandr Anosov,100,M,No,Raw,B,Open,1989-10-07,28,98.5,Russia,,,,,,162.5,-167.5,-167.5,,162.5,,,,,,162.5
4,Karen Arutiunian,100,M,No,Raw,B,Open,1976-01-03,41,92.6,Russia,,,,,,145,150,155,,155,,,,,,155
1,Aleksei Kovrigin,100,M,No,Raw,B,Masters 40-44,1975-08-18,42,98.7,Russia,,,,,,190,-200,-200,,190,,,,,,190
2,Aleksandr Liashenko,100,M,No,Raw,B,Masters 40-44,1977-01-22,40,97,Russia,,,,,,175,182.5,-190,,182.5,,,,,,182.5
3,Karen Arutiunian,100,M,No,Raw,B,Masters 40-44,1976-01-03,41,92.6,Russia,,,,,,145,150,155,,155,,,,,,155
1,Aleksei Strulev,100,M,No,Raw,B,Masters 45-49,1971-03-19,46,98.2,Russia,,,,,,150,160,-165,,160,,,,,,160
1,Andrei Makevnin,100,M,No,Raw,B,Masters 55-59,1961-05-18,56,95.6,Russia,,,,,,160,170,172.5,,172.5,,,,,,172.5
1,Rustam Bakhteev,110,M,No,Raw,B,Juniors 20-23,1994-10-18,23,105.7,Russia,,,,,,160,-167.5,167.5,,167.5,,,,,,167.5
1,Aleksandr Zhachenkov,110,M,No,Raw,B,Open,1981-07-30,36,108.1,Russia,,,,,,240,250,-260,,250,,,,,,250
2,Vasilii Filatov,110,M,No,Raw,B,Open,1989-02-24,28,108.2,Russia,,,,,,217.5,225,-230,,225,,,,,,225
3,Ivan Sinelnikov,110,M,No,Raw,B,Open,1981-08-15,36,106.3,Russia,,,,,,200,205,207.5,,207.5,,,,,,207.5
4,Viktor Artemev,110,M,No,Raw,B,Open,1989-11-22,28,103.4,Russia,,,,,,-195,202.5,-212.5,,202.5,,,,,,202.5
5,Sergei Kolganov,110,M,No,Raw,B,Open,1978-07-20,39,108.5,Russia,,,,,,192.5,-202.5,-205,,192.5,,,,,,192.5
1,Artem Golovin,110,M,No,Raw,B,Masters 40-44,1977-08-15,40,106.4,Russia,,,,,,195,205,-212.5,,205,,,,,,205
1,Oleg Kulakov,110,M,No,Raw,B,Masters 45-49,1969-10-14,48,107.8,Russia,,,,,,-185,187.5,-192.5,,187.5,,,,,,187.5
1,Aleksei Markelov,125,M,No,Raw,B,Open,1983-06-08,34,113.6,Russia,,,,,,237.5,-247.5,-247.5,,237.5,,,,,,237.5
2,Sergei Razghivaikin,125,M,No,Raw,B,Open,1989-08-01,28,125,Russia,,,,,,-230,230,-240,,230,,,,,,230
3,Anatolii Rughkov,125,M,No,Raw,B,Open,1984-06-20,33,112.8,Russia,,,,,,205,210,-215,,210,,,,,,210
1,Leonid Palshin,125,M,No,Raw,B,Masters 45-49,1970-03-22,47,116.6,Russia,,,,,,192.5,-202.5,-202.5,,192.5,,,,,,192.5
1,Evgenii Epishin,125,M,No,Raw,B,Masters 55-59,1962-01-01,55,113.6,Russia,,,,,,-180,180,190,,190,,,,,,190
1,Bogdan Kozak,140,M,No,Raw,B,Open,1984-04-05,33,132.2,Russia,,,,,,260,-270,-270,,260,,,,,,260
2,Andrei Vusotskii,140,M,No,Raw,B,Open,1977-11-19,40,129.8,Russia,,,,,,200,207.5,-212.5,,207.5,,,,,,207.5
3,Evgenii Kaminskii,140,M,No,Raw,B,Open,1988-11-05,29,125.7,Russia,,,,,,197.5,,,,197.5,,,,,,197.5
1,Andrei Vusotskii,140,M,No,Raw,B,Masters 40-44,1977-11-19,40,129.8,Russia,,,,,,200,207.5,-212.5,,207.5,,,,,,207.5
1,Vladimir Beliakhin,67.5,M,No,Single-ply,B,Open,1989-05-19,28,67.5,Russia,,,,,,195,210,-225,,210,,,,,,210
1,Sergei Chugurov,75,M,No,Single-ply,B,Open,1993-06-22,24,74.9,Russia,,,,,,-205,-205,205,,205,,,,,,205
1,Egor Filatov,82.5,M,No,Single-ply,B,Open,1993-04-22,24,80.2,Russia,,,,,,160,-167.5,-167.5,,160,,,,,,160
1,Bogdan Khabaev,100,M,No,Single-ply,B,Juniors 20-23,1994-07-14,23,100,Russia,,,,,,-195,207.5,-220,,207.5,,,,,,207.5
1,Ivan Poriadin,100,M,No,Single-ply,B,Open,1982-06-06,35,98.1,Russia,,,,,,230,-245,245,,245,,,,,,245
2,Stanislav Kulikov,100,M,No,Single-ply,B,Open,1978-11-29,39,99.6,Russia,,,,,,230,240,,,240,,,,,,240
DQ,Vitalii Bobrov,110,M,No,Single-ply,B,Open,1981-07-30,36,102.7,Russia,,,,,,-300,-300,-300,,,,,,,,
1,Nikolai Pushmintsev,140,M,No,Single-ply,B,Open,1981-01-04,36,134.4,Russia,,,,,,300,320,-350,,320,,,,,,320
1,Aleksei Lisogor,140+,M,No,Single-ply,B,Open,1986-04-30,31,165,Russia,,,,,,-310,310,-325,,310,,,,,,310
1,Emin Galib Ogly Mamedov,110,M,No,Multi-ply,B,Open,1974-08-31,43,107,Russia,,,,,,350,-380,-380,,350,,,,,,350
1,Emin Galib Ogly Mamedov,110,M,No,Multi-ply,B,Masters 40-44,1974-08-31,43,107,Russia,,,,,,350,-380,-380,,350,,,,,,350
1,Arina Podgornova,60,F,No,Raw,D,Teen 15-19,2002-03-11,15,60,Russia,,,,,,,,,,,70,82.5,92.5,,92.5,92.5
1,Gonzalez Caterine,60,F,No,Raw,D,Juniors 20-23,1997-08-14,20,59.9,Colombia,,,,,,,,,,,180,-190,,,180,180
1,Gonzalez Caterine,60,F,No,Raw,D,Open,1997-08-14,20,59.9,Colombia,,,,,,,,,,,180,-190,,,180,180
1,Natalia Kniazeva,60,F,No,Raw,D,Masters 45-49,1970-07-16,47,59.9,Russia,,,,,,,,,,,100,115,122.5,127.5,122.5,122.5
1,Elena Pecherskaia,67.5,F,No,Raw,D,Open,1991-02-08,26,65.2,Russia,,,,,,,,,,,135,150,-160,,150,150
1,Mariia Klintsova,82.5,F,No,Raw,D,Open,1987-01-31,30,79.9,Russia,,,,,,,,,,,150,162.5,-175,,162.5,162.5
1,Andrei Balandin,56,M,No,Raw,D,Teen 15-19,1999-11-11,18,53.7,Russia,,,,,,,,,,,157.5,170,-190,,170,170
1,Shahram Afrasiabi,75,M,No,Raw,D,Open,1986-08-09,31,70.9,Iran,,,,,,,,,,,-150,150,165,,165,165
1,Sergei Nikitin,75,M,No,Raw,D,Masters 50-54,1964-03-28,53,73.7,Russia,,,,,,,,,,,225,-240,245,250,245,245
1,Aleksandr Gubanov,75,M,No,Raw,D,Masters 65-69,1951-02-06,66,74.3,Russia,,,,,,,,,,,80,100,-110,,100,100
1,Aleksandr Ilenko,82.5,M,No,Raw,D,Juniors 20-23,1996-03-23,21,81,Russia,,,,,,,,,,,265,280,-287.5,,280,280
1,Aleksey Nikulin,82.5,M,No,Raw,D,Open,1982-11-01,35,80.1,Russia,,,,,,,,,,,290,-300,-300,,290,290
2,Maksim Mazanik,82.5,M,No,Raw,D,Open,1988-04-28,29,82.2,Belarus,,,,,,,,,,,235,250,,,250,250
1,Aleksandr Likholai,82.5,M,No,Raw,D,Masters 75-79,1939-02-22,78,75.6,Russia,,,,,,,,,,,105,115,120,,120,120
1,Artiom Kaiumov,90,M,No,Raw,D,Juniors 20-23,1994-11-23,23,88.7,Russia,,,,,,,,,,,245,260,-265,,260,260
1,Dmitrii Pavlov,90,M,No,Raw,D,Open,1991-11-15,26,89.3,Russia,,,,,,,,,,,300,-310,315,,315,315
2,Aleksandr Kireev,90,M,No,Raw,D,Open,1992-07-25,25,86.8,Russia,,,,,,,,,,,270,-277.5,-277.5,,270,270
1,Aleksandr Losuchenko,90,M,No,Raw,D,Masters 60-64,1955-12-06,62,88.9,Russia,,,,,,,,,,,240,255,260,,260,260
1,Pavel Chikov,100,M,No,Raw,D,Teen 15-19,1999-05-18,18,96.2,Russia,,,,,,,,,,,285,302.5,-312.5,,302.5,302.5
1,Aleksandr Rghanovskii,100,M,No,Raw,D,Juniors 20-23,1994-03-30,23,91.9,Russia,,,,,,,,,,,-240,240,-260,,240,240
1,Dmitrii Gurkin,100,M,No,Raw,D,Open,1981-12-07,36,97.1,Russia,,,,,,,,,,,300,-310,-310,,300,300
2,Salazar Saul,100,M,No,Raw,D,Open,1964-02-03,53,94.8,Colombia,,,,,,,,,,,230,250,262.5,-272.5,262.5,262.5
3,Vladimir Brusov,100,M,No,Raw,D,Open,,34,95.7,Russia,,,,,,,,,,,230,245,-250,,245,245
1,Oleg Okladnoi,100,M,No,Raw,D,Masters 40-44,1975-10-07,42,93.1,Russia,,,,,,,,,,,-275,275,-290,,275,275
1,Vyacheslav Gorbunov,100,M,No,Raw,D,Masters 45-49,1967-12-20,49,94.5,Russia,,,,,,,,,,,200,215,222.5,,222.5,222.5
2,Oleg Sokolov,100,M,No,Raw,D,Masters 45-49,1972-08-14,45,97.8,Russia,,,,,,,,,,,190,210,-220,,210,210
1,Salazar Saul,100,M,No,Raw,D,Masters 50-54,1964-02-03,53,94.8,Colombia,,,,,,,,,,,230,250,262.5,-272.5,262.5,262.5
1,Vitalii Gnatko,100,M,No,Raw,D,Masters 55-59,1961-07-30,56,95.2,Russia,,,,,,,,,,,230,245,250,,250,250
1,Oleg Vinogradov,110,M,No,Raw,D,Open,1990-06-09,27,101.4,Russia,,,,,,,,,,,345,-360,-360,,345,345
2,Aleksei Nanichkin,110,M,No,Raw,D,Open,1991-02-23,26,108.2,Russia,,,,,,,,,,,300,322.5,340,,340,340
3,Aleksandr Tarakin,110,M,No,Raw,D,Open,1986-02-10,31,102.9,Russia,,,,,,,,,,,-320,320,337.5,,337.5,337.5
DQ,Iurii Belkin,110,M,No,Raw,D,Open,1990-12-05,27,100.2,Russia,,,,,,,,,,,-461,,,,,
1,Valerii Sutnikov,110,M,No,Raw,D,Masters 45-49,1970-02-28,47,108.9,Russia,,,,,,,,,,,260,282.5,287.5,,287.5,287.5
1,Artur Borisov,125,M,No,Raw,D,Teen 15-19,1997-12-29,19,122.6,Russia,,,,,,,,,,,305,-315,-315,,305,305
1,Aleksey Moskvichyov,125,M,No,Raw,D,Open,1982-03-02,35,114.9,Russia,,,,,,,,,,,375,390,-400,,390,390
2,Sergey Daragan,125,M,No,Raw,D,Open,1978-11-12,39,122.1,Russia,,,,,,,,,,,390,-416,-416,,390,390
3,Vladimir Marchenko,125,M,No,Raw,D,Open,1984-10-19,33,123.9,Russia,,,,,,,,,,,370,380,-387.5,,380,380
DQ,Ivan Chesnokov,125,M,No,Raw,D,Open,1990-08-08,27,123.1,Russia,,,,,,,,,,,-340,-340,,,,
1,Evgenii Ivanov,140,M,No,Raw,D,Open,1973-06-13,44,133.2,Russia,,,,,,,,,,,295,-305,-305,,295,295
1,Evgenii Ivanov,140,M,No,Raw,D,Masters 40-44,1973-06-13,44,133.2,Russia,,,,,,,,,,,295,-305,-305,,295,295
1,Majid Ramezani,140+,M,No,Raw,D,Open,1984-04-11,33,160.2,Iran,,,,,,,,,,,-200,200,220,,220,220
1,Mohammad Tabrizian,140+,M,No,Raw,D,Masters 40-44,1973-04-01,44,142,Iran,,,,,,,,,,,-220,220,227.5,,227.5,227.5
1,Alena Fedulova,60,F,No,Single-ply,D,Open,1990-10-13,27,58.2,Russia,,,,,,,,,,,125,137.5,142.5,,142.5,142.5
1,Nadeghda Talikova,75,F,No,Single-ply,D,Masters 55-59,1960-04-01,57,71,Russia,,,,,,,,,,,170,-190,190,,190,190
1,Anton Doronin,75,M,No,Single-ply,D,Open,1991-07-19,26,72.5,Russia,,,,,,,,,,,180,190,-200,,190,190
1,Roman Zverev,100,M,No,Single-ply,D,Open,1988-05-15,29,99.2,Russia,,,,,,,,,,,315,325,-335,,325,325
2,Stanislav Kulikov,100,M,No,Single-ply,D,Open,1978-11-29,39,99.6,Russia,,,,,,,,,,,300,320,,,320,320
1,Maksim Dereghovskii,100,M,No,Multi-ply,D,Open,1984-03-20,33,97,Russia,,,,,,,,,,,290,-305,-305,,290,290
1,Tatiana Serova,44,F,Yes,Raw,SBD,Open,1978-07-27,39,43.6,Russia,75,-80,-80,,75,-40,42.5,-45,,42.5,90,-100,-100,,90,207.5
1,Kristina Lutasova,48,F,Yes,Raw,SBD,Open,1988-03-04,29,48,Russia,90,95,102.5,,102.5,52.5,55,60,,60,90,95,100,,100,262.5
1,Tatiana Gorb,52,F,Yes,Raw,SBD,Teen 15-19,1998-05-10,19,51.1,Russia,85,-92.5,92.5,,92.5,40,45,-47.5,,45,115,122.5,,,122.5,260
1,Sofia Shelestova,52,F,Yes,Raw,SBD,Juniors 20-23,1994-02-07,23,52,Russia,90,97.5,100,,100,40,45,-47.5,,45,85,90,95,,95,240
1,Olga Petrichenko,52,F,Yes,Raw,SBD,Open,1985-12-21,31,51.4,Russia,95,105,110,,110,55,60,-62.5,,60,110,120,127.5,,127.5,297.5
2,Renata Korkina,52,F,Yes,Raw,SBD,Open,1986-06-24,31,49.5,Russia,85,92.5,-97.5,,92.5,52.5,57.5,-60,,57.5,90,95,100,,100,250
1,Marina Latukhina,56,F,Yes,Raw,SBD,Open,1984-09-05,33,55.3,Russia,85,90,95,,95,57.5,60,-62.5,,60,110,115,-120,,115,270
2,Ekaterina Udalova,56,F,Yes,Raw,SBD,Open,1985-01-11,32,55.2,Russia,-92.5,92.5,105,,105,47.5,-55,-55,,47.5,95,102.5,-107.5,,102.5,255
3,Anna Schekina,56,F,Yes,Raw,SBD,Open,1989-01-12,28,56,Russia,-85,85,-87.5,,85,45,-47.5,-47.5,,45,100,105,-112.5,,105,235
DQ,Mariia Kuzo,56,F,Yes,Raw,SBD,Open,1983-07-19,34,55.4,Russia,75,80,-85,,80,-47.5,-47.5,-47.5,,,,,,,,
1,Kristina Nikiforova,60,F,Yes,Raw,SBD,Teen 13-15,2002-12-24,14,57.5,Russia,65,70,75,,75,35,37.5,40,,40,70,80,90,,90,205
1,Daria Fatukhova,60,F,Yes,Raw,SBD,Juniors 20-23,1994-06-07,23,57.8,Russia,105,-112.5,-112.5,,105,60,-65,-65,,60,105,112.5,120,,120,285
1,Daria Fatukhova,60,F,Yes,Raw,SBD,Open,1994-06-07,23,57.8,Russia,105,-112.5,-112.5,,105,60,-65,-65,,60,105,112.5,120,,120,285
2,Natalia Pokhosoeva,60,F,Yes,Raw,SBD,Open,1980-09-20,37,57.5,Russia,85,90,-95,,90,55,-57.5,-57.5,,55,90,95,100,,100,245
3,Ekaterina Popova,60,F,Yes,Raw,SBD,Open,1988-03-02,29,59,Russia,67.5,70,75,,75,37.5,40,42.5,,42.5,80,87.5,92.5,,92.5,210
1,Elizaveta Smagina,67.5,F,Yes,Raw,SBD,Teen 15-19,1998-08-18,19,67.1,Russia,-80,80,-95,,80,40,45,-50,,45,100,-112.5,-122.5,,100,225
1,Anastasiia Melnik,67.5,F,Yes,Raw,SBD,Juniors 20-23,1996-06-16,21,65.3,Russia,-90,90,-100,,90,-52.5,52.5,-57.5,,52.5,100,110,115,,115,257.5
2,Anna Supichenko,67.5,F,Yes,Raw,SBD,Juniors 20-23,1994-07-27,23,64.4,Russia,70,77.5,-82.5,,77.5,-50,50,-52.5,,50,95,100,107.5,,107.5,235
1,Iuliia Zelentsova,67.5,F,Yes,Raw,SBD,Open,1988-07-22,29,64.2,Russia,-65,-72.5,72.5,,72.5,45,-47.5,-47.5,,45,-95,95,-102.5,,95,212.5
1,Natalia Cherkasova,67.5,F,Yes,Raw,SBD,Masters 40-44,1976-05-30,41,66.8,Russia,115,120,-122.5,,120,-60,60,-65,,60,130,-140,-140,,130,310
1,Elena Koniushenko,75,F,Yes,Raw,SBD,Open,1985-03-11,32,72.1,Russia,105,-112.5,-115,,105,-82.5,82.5,-87.5,,82.5,140,150,155,,155,342.5
2,Liliia Atamanichenko,75,F,Yes,Raw,SBD,Open,1988-01-17,29,70.4,Russia,100,-110,-110,,100,55,-60,-60,,55,100,110,-120,,110,265
1,Andrei Raznopolov,60,M,Yes,Raw,SBD,Juniors 20-23,1995-07-05,22,59.3,Russia,110,120,-130,,120,60,65,70,,70,155,165,-175,,165,355
1,Ovais Ramezani,67.5,M,Yes,Raw,SBD,Teen 15-19,2000-03-05,17,66.5,Iran,120,130,140,,140,80,100,107.5,,107.5,130,140,145,,145,392.5
1,Dmitrii Sidorkin,67.5,M,Yes,Raw,SBD,Open,1993-02-04,24,67.3,Russia,175,187.5,192.5,,192.5,135,140,142.5,,142.5,180,200,-202.5,,200,535
1,Aleksandr Grevtsev,67.5,M,Yes,Raw,SBD,Masters 40-44,1975-09-10,42,67.2,Russia,142.5,147.5,-152.5,,147.5,-100,100,-105,,100,165,-172.5,172.5,,172.5,420
1,Maksim Presniakov,75,M,Yes,Raw,SBD,Teen 15-19,1999-07-06,18,74,Russia,135,-137.5,147.5,,147.5,-110,110,-120,,110,130,140,150,,150,407.5
1,Mikhail Kafash,75,M,Yes,Raw,SBD,Juniors 20-23,1996-02-25,21,73.6,Russia,160,170,175,,175,-120,120,125,,125,180,190,-200,,190,490
1,Evgenii Karpov,75,M,Yes,Raw,SBD,Open,1979-10-26,38,72.3,Russia,175,185,-192.5,,185,130,135,-140,,135,180,190,195,,195,515
2,Grigorii Ermoshkin,75,M,Yes,Raw,SBD,Open,1985-10-16,32,74.4,Russia,150,160,-175,,160,105,-110,-110,,105,165,175,182.5,,182.5,447.5
3,Sergei Markevich,75,M,Yes,Raw,SBD,Open,1982-03-31,35,73.9,Russia,-130,-140,145,,145,95,-100,-100,,95,150,160,165,,165,405
DQ,Vladimir Borovkov,75,M,Yes,Raw,SBD,Open,1992-11-13,25,72,Russia,120,-127.5,-127.5,,120,-115,-115,-115,,-115,-180,180,185,,185,
1,Bogdan Bachinskii,82.5,M,Yes,Raw,SBD,Teen 15-19,1998-06-10,19,78,Russia,140,150,160,,160,90,100,105,,105,200,210,217.5,,217.5,482.5
2,Pavel Patukin,82.5,M,Yes,Raw,SBD,Teen 15-19,1999-10-26,18,77.3,Russia,-160,170,-175,,170,-102.5,-102.5,102.5,,102.5,180,185,-190,,185,457.5
1,Artem Shasherin,82.5,M,Yes,Raw,SBD,Open,1984-11-08,33,81.4,Russia,200,210,215,,215,130,135,140,,140,210,220,-230,,220,575
2,Artem Martuniuk,82.5,M,Yes,Raw,SBD,Open,1985-09-08,32,80.3,Russia,-155,-155,155,,155,120,-125,127.5,,127.5,190,200,210,,210,492.5
3,Ilia Rogachev,82.5,M,Yes,Raw,SBD,Open,1983-02-25,34,81,Russia,145,152.5,-157.5,,152.5,120,127.5,-132.5,,127.5,-165,170,-180,,170,450
DQ,Mikhail Kostikov,82.5,M,Yes,Raw,SBD,Masters 40-44,1975-06-29,42,81,Russia,-165,-165,-165,,,,,,,,,,,,,
1,Dmitrii Makarov,90,M,Yes,Raw,SBD,Teen 15-19,1999-03-14,18,84.5,Russia,130,140,-145,,140,100,105,-110,,105,200,-205,-205,,200,445
2,Aleksandr Katamadze,90,M,Yes,Raw,SBD,Teen 15-19,1999-06-26,18,87.1,Russia,-140,-145,145,,145,-100,100,105,,105,150,160,170,,170,420
1,Aleksei Sheikin,90,M,Yes,Raw,SBD,Open,1988-03-24,29,89.4,Belarus,235,245,250,,250,175,180,185,,185,-280,280,-300,,280,715
2,Evgenii Vladimirov,90,M,Yes,Raw,SBD,Open,1964-08-22,53,87.7,Russia,-230,230,240,,240,-140,140,145,,145,225,230,-235,,230,615
3,Igor Kuznetsov,90,M,Yes,Raw,SBD,Open,1982-08-02,35,89.6,Russia,180,187.5,190,,190,145,-150,-150,,145,210,220,-225,,220,555
4,Dmitrii Suprunov,90,M,Yes,Raw,SBD,Open,1989-06-08,28,86.7,Russia,170,180,190,,190,135,-140,140,,140,190,200,207.5,,207.5,537.5
5,Mikhail Terekhov,90,M,Yes,Raw,SBD,Open,1982-05-22,35,87.5,Russia,180,-190,-202.5,,180,115,120,-125,,120,190,200,210,,210,510
6,Dmitrii Galaktionov,90,M,Yes,Raw,SBD,Open,1983-01-10,34,84.5,Russia,-150,-155,155,,155,90,95,-100,,95,160,170,182.5,,182.5,432.5
1,Viacheslav Sosnovskii,90,M,Yes,Raw,SBD,Masters 40-44,1976-09-06,41,88.2,Russia,-180,-182.5,185,,185,-120,125,-130,,125,210,225,235,,235,545
1,Evgenii Vladimirov,90,M,Yes,Raw,SBD,Masters 50-54,1964-08-22,53,87.7,Russia,-230,230,240,,240,-140,140,145,,145,225,230,-235,,230,615
1,Ivan Zagorodniuk,100,M,Yes,Raw,SBD,Juniors 20-23,1997-05-02,20,98.3,Russia,-200,205,-212.5,,205,-135,140,-145,,140,210,222.5,-230,,222.5,567.5
1,Ruslan Volkov,100,M,Yes,Raw,SBD,Open,1993-02-18,24,98.7,Russia,260,270,-275,,270,155,165,170,,170,270,280,285,,285,725
2,Stepan Sagirov,100,M,Yes,Raw,SBD,Open,1992-11-19,25,97.8,Russia,230,240,250,,250,175,180,185,,185,250,270,-290,,270,705
3,Iurii Gubanov,100,M,Yes,Raw,SBD,Open,1987-03-06,30,97,Russia,220,235,245,,245,160,170,-175,,170,260,270,-285,,270,685
4,Artiom Volunskii,100,M,Yes,Raw,SBD,Open,1988-04-08,29,94.4,Russia,170,180,190,,190,130,-135,,,130,210,225,240,,240,560
5,Mikhail Vasilevskii,100,M,Yes,Raw,SBD,Open,1991-01-21,26,98.7,Russia,190,202.5,-215,,202.5,125,132.5,-140,,132.5,190,200,210,,210,545
DQ,Aleksandr Kornev,100,M,Yes,Raw,SBD,Open,1990-07-09,27,96.2,Russia,-130,140,145,,145,120,125,,,125,-170,,,,,
1,Ilia Nefedov,100,M,Yes,Raw,SBD,Masters 45-49,1972-05-25,45,99.7,Russia,220,230,232.5,,232.5,140,145,147.5,,147.5,240,260,265,,265,645
DQ,Raad Gholamrezaei,100,M,Yes,Raw,SBD,Masters 45-49,1971-06-23,46,94.2,Iran,-230,-230,-230,,,,,,,,,,,,,
1,Sergei Sologub,100,M,Yes,Raw,SBD,Masters 60-64,1954-09-05,63,93.3,Russia,-100,105,125,,125,110,-115,-115,,110,135,150,160,,160,395
1,Valeriy Bystrov,100,M,Yes,Raw,SBD,Masters 75-79,1941-06-14,76,96.7,Russia,160,-175,-180,,160,100,105,-110,,105,200,210,-215,,210,475
1,Aleksandr Lobanov,110,M,Yes,Raw,SBD,Juniors 20-23,1994-04-05,23,103.3,Russia,-210,210,215,,215,162.5,167.5,170,,170,230,237.5,245,,245,630
1,Anton Bukhman,110,M,Yes,Raw,SBD,Open,1988-08-22,29,109.9,Russia,255,272.5,-282.5,,272.5,177.5,187.5,197.5,,197.5,275,290,300,,300,770
2,Dmitrii Samarianov,110,M,Yes,Raw,SBD,Open,1978-10-17,39,109.4,Russia,-220,-220,220,,220,175,-180,-180,,175,235,250,-260,,250,645
3,Ivan Sapronov,110,M,Yes,Raw,SBD,Open,1979-06-30,38,106.5,Russia,-190,190,-205,,190,140,-147.5,-152.5,,140,190,205,220,,220,550
1,Artashes Sudghian,125,M,Yes,Raw,SBD,Open,1987-11-04,30,125,Russia,270,285,295,,295,200,207.5,-210,,207.5,280,292.5,300,,300,802.5
2,Ahad Gharadahi,125,M,Yes,Raw,SBD,Open,1990-01-14,27,125,Iran,250,-260,-260,,250,150,165,170,,170,250,270,290,,290,710
3,Dmitrii Efimenko,125,M,Yes,Raw,SBD,Open,1990-12-11,27,123.3,Russia,210,225,230,,230,150,-160,-160,,150,250,-270,-275,,250,630
DQ,Vasilii Zakharchuk,125,M,Yes,Raw,SBD,Open,1989-11-20,28,123.7,Russia,-240,-240,-250,,-240,160,-175,-175,,160,230,245,250,,250,
1,Vladimir Chernushov,125,M,Yes,Raw,SBD,Masters 65-69,1948-09-06,69,114,Russia,215,225,,,225,120,127.5,132.5,,132.5,240,-250,,,240,597.5
1,Mohamadreza Hematisharifabadi,140,M,Yes,Raw,SBD,Open,1993-04-25,24,126.8,Iran,260,-295,-295,,260,190,-205,205,,205,240,-260,-260,,240,705
1,Abadi Mahmood,140+,M,Yes,Raw,SBD,Teen 15-19,1999-08-31,18,140.8,Iran,-200,200,-205,,200,90,120,-130,,120,170,190,210,,210,530
1,Seyedmilad Hashemiteroujeni,140+,M,Yes,Raw,SBD,Open,1992-02-22,25,140.8,Iran,300,310,330,,330,170,185,190,,190,290,-300,,,290,810
2,Mousa Feizikararoudi,140+,M,Yes,Raw,SBD,Open,1982-02-04,35,146.5,Iran,315,-355,355,,355,155,170,180,,180,230,-260,260,,260,795
DQ,Liudmila Demidova,52,F,Yes,Wraps,SBD,Juniors 20-23,1995-06-10,22,51.2,Russia,-90,-90,-90,,,,,,,,,,,,,
1,Natalia Konchakova,52,F,Yes,Wraps,SBD,Open,1977-08-14,40,51.3,Russia,135,142.5,147.5,,147.5,65,67.5,-70,,67.5,-155,-157.5,157.5,,157.5,372.5
2,Inna Ozerniuk,52,F,Yes,Wraps,SBD,Open,1989-06-06,28,51,Russia,-105,-105,105,,105,40,-45,-45,,40,110,-117.5,117.5,,117.5,262.5
DQ,Liudmila Demidova,52,F,Yes,Wraps,SBD,Open,1995-06-10,22,51.2,Russia,-90,-90,-90,,,,,,,,,,,,,
1,Natalia Sekhova,60,F,Yes,Wraps,SBD,Juniors 20-23,1996-06-23,21,58.1,Russia,85,95,102.5,,102.5,57.5,62.5,-65,,62.5,95,100,105,,105,270
1,Iana Petelova,60,F,Yes,Wraps,SBD,Open,1990-04-12,27,58.8,Russia,130,135,140,,140,70,-75,75,,75,120,127.5,130,,130,345
2,Kristina Dobria,60,F,Yes,Wraps,SBD,Open,1989-04-20,28,58.9,Russia,110,117.5,120,,120,-62.5,-62.5,62.5,,62.5,135,145,-150,,145,327.5
DQ,Anastasiia Shiriaeva,67.5,F,Yes,Wraps,SBD,Teen 15-19,1998-08-30,19,66.9,Russia,-115,-115,115,,115,45,-50,-50,,45,-105,-105,-105,,,
1,Marina Klimova,67.5,F,Yes,Wraps,SBD,Open,1978-08-05,39,66,Russia,-110,110,120,,120,60,62.5,65,,65,120,125,-130,,125,310
1,Stanislav Vaniukhanov,60,M,Yes,Wraps,SBD,Juniors 20-23,1996-10-08,21,59.3,Russia,155,-162.5,-162.5,,155,97.5,102.5,-105,,102.5,165,-172.5,172.5,,172.5,430
1,Semion Tkachiov,67.5,M,Yes,Wraps,SBD,Juniors 20-23,1994-09-18,23,66.6,Russia,190,-200,-200,,190,95,-100,100,,100,182.5,192.5,-197.5,,192.5,482.5
1,Anton Biriukov,75,M,Yes,Wraps,SBD,Teen 15-19,1998-03-17,19,68.1,Russia,175,185,195,,195,90,95,100,,100,160,170,175,,175,470
1,Zelimkhan Shankhoev,75,M,Yes,Wraps,SBD,Open,1993-10-19,24,74,Russia,-170,175,180,,180,130,-135,-137.5,,130,-210,210,-225,,210,520
1,Artiom Bespalov,82.5,M,Yes,Wraps,SBD,Open,1993-08-28,24,80.4,Russia,-225,-225,225,,225,117.5,122.5,-125,,122.5,230,242.5,247.5,,247.5,595
2,Grigorii Iudin,82.5,M,Yes,Wraps,SBD,Open,1985-06-06,32,81.4,Russia,225,240,-252.5,,240,140,-147.5,-147.5,,140,170,190,-205,,190,570
3,Viktor Iashin,82.5,M,Yes,Wraps,SBD,Open,1989-10-29,28,82,Russia,172.5,-182.5,-182.5,,172.5,-105,-105,105,,105,172.5,182.5,-192.5,,182.5,460
1,Artak Kazarian,90,M,Yes,Wraps,SBD,Teen 15-19,2000-05-25,17,89.4,Russia,225,-235,-235,,225,130,-137.5,137.5,-142.5,137.5,215,225,235,-240,235,597.5
1,Dmitrii Maiorov,90,M,Yes,Wraps,SBD,Open,1992-09-04,25,87.3,Russia,-190,190,200,,200,130,140,150,,150,230,240,250,,250,600
2,Artak Kazarian,90,M,Yes,Wraps,SBD,Open,2000-05-25,17,89.4,Russia,225,-235,-235,,225,130,-137.5,137.5,-142.5,137.5,215,225,235,-240,235,597.5
3,Samvel Danielian,90,M,Yes,Wraps,SBD,Open,1991-04-17,26,89.2,Russia,200,215,230,,230,135,142.5,-147.5,,142.5,210,-225,-225,,210,582.5
4,Dmitrii Melsitov,90,M,Yes,Wraps,SBD,Open,1978-04-01,39,88.4,Russia,170,-185,-195,,170,100,-110,110,,110,170,180,187.5,,187.5,467.5
1,Sergei Utkin,90,M,Yes,Wraps,SBD,Masters 45-49,1972-08-21,45,89.7,Russia,-230,-235,235,,235,132.5,140,-142.5,,140,225,237.5,242.5,,242.5,617.5
1,Sergei Kiselev,100,M,Yes,Wraps,SBD,Open,1990-06-20,27,100,Russia,200,-207.5,212.5,,212.5,135,140,145,,145,260,275,-287.5,,275,632.5
2,Leonid Bormalev,100,M,Yes,Wraps,SBD,Open,1990-03-10,27,97.6,Russia,215,-230,-230,,215,130,-140,140,,140,-215,225,-240,,225,580
3,Sergei Zelenin,100,M,Yes,Wraps,SBD,Open,1984-07-10,33,93.9,Russia,-200,205,-220,,205,125,135,-140,,135,200,215,-225,,215,555
1,Iurii Marenkov,100,M,Yes,Wraps,SBD,Masters 40-44,1976-12-18,40,96.8,Russia,190,215,225,,225,140,150,-155,,150,200,210,-220,,210,585
1,Ivan Grigorev,110,M,Yes,Wraps,SBD,Open,1993-04-22,24,106.1,Russia,220,230,-240,,230,135,140,145,,145,220,-235,235,,235,610
2,Grigorii Kochnev,110,M,Yes,Wraps,SBD,Open,1988-04-24,29,105,Russia,230,-240,-240,,230,-140,140,-150,,140,215,225,230,,230,600
3,Mikhail Kulakov,110,M,Yes,Wraps,SBD,Open,1986-05-01,31,104.3,Russia,-135,135,-140,,135,72.5,-75,-75,,72.5,155,157.5,160,,160,367.5
1,Vsevolod Kovshar,125,M,Yes,Wraps,SBD,Juniors 20-23,1995-12-06,22,114.9,Russia,230,245,255,,255,-145,-150,150,,150,220,232.5,245,,245,650
1,Nikita Tuliakov,125,M,Yes,Wraps,SBD,Open,1988-02-23,29,113.2,Russia,240,250,260,,260,-160,165,170,,170,260,272.5,280,,280,710
DQ,Marjan Heidarzade,90,M,Yes,Single-ply,SBD,Open,1986-09-17,31,84.8,Iran,-135,-140,-140,,,,,,,,,,,,,
1,Roman Zverev,100,M,Yes,Single-ply,SBD,Open,1988-05-15,29,99.2,Russia,320,340,355,,355,190,200,-205,,200,315,325,-335,,325,880
1,Sofia Shelestova,52,F,Yes,Raw,BD,Juniors 20-23,1994-02-07,23,52,Russia,,,,,,40,45,-47.5,,45,85,90,95,,95,140
1,Andrei Kupriushin,56,M,Yes,Raw,BD,Juniors 20-23,1997-05-17,20,53.4,Russia,,,,,,70,-80,-80,,70,145,155,-165,,155,225
1,Aleksandr Grevtsev,67.5,M,Yes,Raw,BD,Masters 40-44,1975-09-10,42,67.2,Russia,,,,,,-100,100,-105,,100,165,-172.5,172.5,,172.5,272.5
1,Aleksei Kozinets,75,M,Yes,Raw,BD,Open,1986-09-10,31,73.4,Russia,,,,,,120,-127.5,-127.5,,120,180,-190,-190,,180,300
1,Nikolai Obukhov,75,M,Yes,Raw,BD,Masters 60-64,1953-04-02,64,74.8,Russia,,,,,,100,105,107.5,,107.5,-180,-180,180,,180,287.5
1,Iurii Kashin,82.5,M,Yes,Raw,BD,Teen 15-19,2000-03-05,17,81.7,Russia,,,,,,-92.5,92.5,97.5,,97.5,180,-190,-190,,180,277.5
1,Igor Pashkov,82.5,M,Yes,Raw,BD,Open,1986-06-10,31,79.6,Russia,,,,,,130,135,-140,,135,230,-237.5,-237.5,,230,365
2,Sergei Denisov,82.5,M,Yes,Raw,BD,Open,1991-09-15,26,79.3,Russia,,,,,,-115,120,127.5,,127.5,220,225,230,,230,357.5
3,Sergei Groshev,82.5,M,Yes,Raw,BD,Open,1987-12-25,29,77.6,Russia,,,,,,-107.5,-107.5,107.5,,107.5,-167.5,172.5,-185,,172.5,280
1,Aleksei Sheikin,90,M,Yes,Raw,BD,Open,1988-03-24,29,89.4,Belarus,,,,,,175,180,185,,185,-280,280,-300,,280,465
1,Evgenii Grishin,90,M,Yes,Raw,BD,Masters 50-54,1966-04-09,51,88.4,Russia,,,,,,87.5,-90,-90,,87.5,125,132.5,140,,140,227.5
1,Stepan Smirnov,100,M,Yes,Raw,BD,Open,1983-09-21,34,98.9,Russia,,,,,,152.5,162.5,170,,170,260,275,-285,,275,445
1,Evgenii Filippin,110,M,Yes,Raw,BD,Open,1983-07-06,34,105.9,Russia,,,,,,-135,135,145,,145,215,-240,-240,,215,360
1,Roman Ilichev,125,M,Yes,Raw,BD,Teen 15-19,1999-01-26,18,112.5,Russia,,,,,,-150,-150,150,,150,-195,195,210,,210,360
1,Ivan Reguliarnui,125,M,Yes,Raw,BD,Open,1984-11-27,33,118.1,Russia,,,,,,195,200,-205,,200,275,290,-297.5,,290,490
2,Sergei Oleinikov,125,M,Yes,Raw,BD,Open,1981-10-01,36,116.8,Russia,,,,,,195,-205,-205,,195,250,270,277.5,,277.5,472.5
1,Nadeghda Mochalova,44,F,Yes,Raw,B,Youth,2007-02-22,10,37.75,Russia,,,,,,32.5,35,37.5,,37.5,,,,,,37.5
1,Iuliia Degtiareva,48,F,Yes,Raw,B,Open,1990-09-08,27,47.45,Russia,,,,,,57.5,-60,60,,60,,,,,,60
2,Kristina Lutasova,48,F,Yes,Raw,B,Open,1988-03-04,29,48,Russia,,,,,,52.5,55,60,,60,,,,,,60
1,Alla Pavlichenko,48,F,Yes,Raw,B,Masters 40-44,1974-10-15,43,46.8,Russia,,,,,,47.5,-50,-52.5,,47.5,,,,,,47.5
1,Kristina Shikina,52,F,Yes,Raw,B,Teen 15-19,1999-07-16,18,51.7,Russia,,,,,,50,55,-57.5,,55,,,,,,55
1,Olga Golovataia,52,F,Yes,Raw,B,Open,1989-08-09,28,50.8,Russia,,,,,,72.5,75,77.5,,77.5,,,,,,77.5
2,Sabina Asriiants,52,F,Yes,Raw,B,Open,1980-08-05,37,51.5,Russia,,,,,,57.5,60,62.5,,62.5,,,,,,62.5
1,Aleksandra Vedeneeva,56,F,Yes,Raw,B,Open,1985-02-25,32,55.8,Russia,,,,,,75,-82.5,-82.5,,75,,,,,,75
2,Olga Korobkova,56,F,Yes,Raw,B,Open,1982-07-15,35,55,Russia,,,,,,60,62.5,-65,,62.5,,,,,,62.5
3,Olga Sergeeva,56,F,Yes,Raw,B,Open,1993-09-16,24,55.6,Russia,,,,,,57.5,62.5,-65,,62.5,,,,,,62.5
4,Olga Nikolaeva,56,F,Yes,Raw,B,Open,1990-09-11,27,55.6,Russia,,,,,,52.5,57.5,-62.5,,57.5,,,,,,57.5
1,Daria Fatukhova,60,F,Yes,Raw,B,Juniors 20-23,1994-06-07,23,57.8,Russia,,,,,,60,-65,-65,,60,,,,,,60
1,Iana Petelova,60,F,Yes,Raw,B,Open,1990-04-12,27,58.8,Russia,,,,,,70,-75,75,,75,,,,,,75
2,Daria Fatukhova,60,F,Yes,Raw,B,Open,1994-06-07,23,57.8,Russia,,,,,,60,-65,-65,,60,,,,,,60
DQ,Natalia Sivacheva,60,F,Yes,Raw,B,Open,1979-04-07,38,58.8,Russia,,,,,,-60,-67.5,-67.5,,,,,,,,
DQ,Evgeniia Alekseeva,60,F,Yes,Raw,B,Open,1986-09-08,31,59.7,Russia,,,,,,-57.5,-60,-60,,,,,,,,
DQ,Nataliia Zhumaniiazova,60,F,Yes,Raw,B,Masters 40-44,1974-03-19,43,57,Russia,,,,,,-50,-50,-50,,,,,,,,
1,Anastasiia Shiriaeva,67.5,F,Yes,Raw,B,Teen 15-19,1998-08-30,19,66.9,Russia,,,,,,45,-50,-50,,45,,,,,,45
1,Anna Supichenko,67.5,F,Yes,Raw,B,Juniors 20-23,1994-07-27,23,64.4,Russia,,,,,,-50,50,-52.5,,50,,,,,,50
1,Natalia Ogruzko,67.5,F,Yes,Raw,B,Open,1975-07-12,42,67,Russia,,,,,,100,102.5,-105,,102.5,,,,,,102.5
DQ,Anna Bakhchagulian,67.5,F,Yes,Raw,B,Open,1993-09-07,24,65,Russia,,,,,,-67.5,-67.5,,,,,,,,,
1,Anna Bukhova,75,F,Yes,Raw,B,Juniors 20-23,1995-11-14,22,69.1,Russia,,,,,,57.5,-62.5,-62.5,,57.5,,,,,,57.5
1,Elena Koniushenko,75,F,Yes,Raw,B,Open,1985-03-11,32,72.1,Russia,,,,,,82.5,85,87.5,,87.5,,,,,,87.5
1,Aleksandr Vlasov,60,M,Yes,Raw,B,Open,1971-10-31,46,58.8,Russia,,,,,,117.5,-127.5,-127.5,,117.5,,,,,,117.5
1,Aleksandr Vlasov,60,M,Yes,Raw,B,Masters 45-49,1971-10-31,46,58.8,Russia,,,,,,117.5,-127.5,-127.5,,117.5,,,,,,117.5
1,Ovais Ramezani,67.5,M,Yes,Raw,B,Teen 15-19,2000-03-05,17,66.5,Iran,,,,,,80,100,107.5,,107.5,,,,,,107.5
1,Aleksandr Rassokhin,67.5,M,Yes,Raw,B,Open,1985-10-08,32,66.8,Russia,,,,,,145,150,155,,155,,,,,,155
2,Fadis Musin,67.5,M,Yes,Raw,B,Open,1989-03-20,28,66.1,Russia,,,,,,130,-137.5,137.5,,137.5,,,,,,137.5
1,Denis Sokov,75,M,Yes,Raw,B,Open,1985-12-06,32,73.8,Russia,,,,,,155,160,-165,,160,,,,,,160
2,Vitalii Kardakov,75,M,Yes,Raw,B,Open,1989-02-08,28,70.6,Russia,,,,,,145,-155,155,,155,,,,,,155
3,Artur Minasian,75,M,Yes,Raw,B,Open,1988-02-09,29,74,Russia,,,,,,130,135,140,,140,,,,,,140
4,Egor Danilenko,75,M,Yes,Raw,B,Open,1982-03-20,35,74.5,Russia,,,,,,125,-135,135,,135,,,,,,135
5,Vladimir Pakhomov,75,M,Yes,Raw,B,Open,1985-10-16,32,73.6,Russia,,,,,,110,117.5,-125,,117.5,,,,,,117.5
1,Denis Govorunov,82.5,M,Yes,Raw,B,Teen 15-19,1998-03-08,19,81.4,Russia,,,,,,177.5,-185,-185,,177.5,,,,,,177.5
1,Dmitrii Kirghanov,82.5,M,Yes,Raw,B,Juniors 20-23,1994-06-28,23,79.3,Russia,,,,,,135,140,-145,,140,,,,,,140
2,Pourya Mahmoodi,82.5,M,Yes,Raw,B,Juniors 20-23,1997-05-14,20,81.7,Iran,,,,,,107.5,120,-130,,120,,,,,,120
1,Ilia Pankratov,82.5,M,Yes,Raw,B,Open,1986-12-09,31,80.4,Russia,,,,,,195,-202.5,-202.5,,195,,,,,,195
2,Denis Liapunov,82.5,M,Yes,Raw,B,Open,1986-08-19,31,82.1,Russia,,,,,,175,-180,-180,,175,,,,,,175
3,Vasilii Ladin,82.5,M,Yes,Raw,B,Open,1974-10-22,43,81.1,Russia,,,,,,165,170,-175,,170,,,,,,170
4,Eduard Potapov,82.5,M,Yes,Raw,B,Open,1968-01-21,49,81.4,Russia,,,,,,155,160,,,160,,,,,,160
5,Vladislav Krasnov,82.5,M,Yes,Raw,B,Open,1989-01-29,28,79.9,Russia,,,,,,-137.5,-137.5,145,,145,,,,,,145
6,Ivan Roschupkin,82.5,M,Yes,Raw,B,Open,1990-12-04,27,81,Russia,,,,,,145,-152.5,-152.5,,145,,,,,,145
7,Ivan Savelev,82.5,M,Yes,Raw,B,Open,1988-11-03,29,80.6,Russia,,,,,,127.5,135,-145,,135,,,,,,135
8,Ilia Rogachev,82.5,M,Yes,Raw,B,Open,1983-02-25,34,81,Russia,,,,,,120,127.5,-132.5,,127.5,,,,,,127.5
9,Mehran Seyedi,82.5,M,Yes,Raw,B,Open,1991-04-24,26,78,Iran,,,,,,125,,,,125,,,,,,125
DQ,Andrei Kosarev,82.5,M,Yes,Raw,B,Open,1990-04-14,27,77.3,Russia,,,,,,-140,-145,-145,,,,,,,,
1,Vasilii Ladin,82.5,M,Yes,Raw,B,Masters 40-44,1974-10-22,43,81.1,Russia,,,,,,165,170,-175,,170,,,,,,170
1,Eduard Potapov,82.5,M,Yes,Raw,B,Masters 45-49,1968-01-21,49,81.4,Russia,,,,,,155,160,,,160,,,,,,160
1,Vasilii Mosin,82.5,M,Yes,Raw,B,Masters 60-64,1956-06-09,61,80.5,Russia,,,,,,140,-145,145,,145,,,,,,145
1,Nikita Malushkin,90,M,Yes,Raw,B,Juniors 20-23,1995-12-01,22,88.2,Russia,,,,,,125,132.5,140,,140,,,,,,140
1,Evgenii Zhitomirskii,90,M,Yes,Raw,B,Open,1992-04-11,25,88.5,Russia,,,,,,195,-202.5,-202.5,,195,,,,,,195
2,Evgenii Makarenko,90,M,Yes,Raw,B,Open,1980-09-21,37,90,Russia,,,,,,-175,175,180,,180,,,,,,180
3,German Gridchin,90,M,Yes,Raw,B,Open,1988-05-12,29,89.5,Russia,,,,,,167.5,175,-180,,175,,,,,,175
4,Sergei Ermolaev,90,M,Yes,Raw,B,Open,1987-10-04,30,88.9,Russia,,,,,,165,175,-185,,175,,,,,,175
5,Aleksei Blagov,90,M,Yes,Raw,B,Open,1986-10-24,31,87.9,Russia,,,,,,145,152.5,155,,155,,,,,,155
6,Vitalii Kondratenko,90,M,Yes,Raw,B,Open,1985-05-13,32,88.2,Russia,,,,,,145,-152.5,-152.5,,145,,,,,,145
7,Stefan Tafara,90,M,Yes,Raw,B,Open,1986-08-21,31,89.7,Russia,,,,,,142.5,-147.5,-147.5,,142.5,,,,,,142.5
8,Roman Alentev,90,M,Yes,Raw,B,Open,1990-05-13,27,88.8,Russia,,,,,,-132.5,132.5,137.5,,137.5,,,,,,137.5
9,Evgenii Bondarenko,90,M,Yes,Raw,B,Open,1986-10-07,31,87.3,Russia,,,,,,132.5,-140,-140,,132.5,,,,,,132.5
10,Aleksandr Abrashin,90,M,Yes,Raw,B,Open,1982-11-01,35,88.9,Russia,,,,,,132.5,-140,-152.5,,132.5,,,,,,132.5
1,Evgenii Grishin,90,M,Yes,Raw,B,Masters 50-54,1966-04-09,51,88.4,Russia,,,,,,87.5,-90,-90,,87.5,,,,,,87.5
1,Vladimir Vasin,90,M,Yes,Raw,B,Masters 55-59,1958-11-04,59,88.6,Russia,,,,,,120,130,-140,,130,,,,,,130
1,Sergei Gavrish,100,M,Yes,Raw,B,Juniors 20-23,1993-12-18,23,97.8,Russia,,,,,,135,140,-145,,140,,,,,,140
1,Artem Stasyuk,100,M,Yes,Raw,B,Open,1993-05-30,24,96.8,Russia,,,,,,210,220,-222.5,,220,,,,,,220
2,Ilia Orlov,100,M,Yes,Raw,B,Open,1982-06-23,35,100,Russia,,,,,,200,215,-222.5,,215,,,,,,215
3,Avetik Mardoian,100,M,Yes,Raw,B,Open,1992-03-02,25,94.2,Russia,,,,,,170,185,-197.5,,185,,,,,,185
4,Vasilii Zharkov,100,M,Yes,Raw,B,Open,1979-05-01,38,96.5,Russia,,,,,,160,170,175,,175,,,,,,175
5,Dmitrii Goriunov,100,M,Yes,Raw,B,Open,1989-07-11,28,94.8,Russia,,,,,,-162.5,162.5,-167.5,,162.5,,,,,,162.5
6,Dmitrii Pavlov,100,M,Yes,Raw,B,Open,1993-07-11,24,100,Belarus,,,,,,152.5,-157.5,-157.5,,152.5,,,,,,152.5
1,Maksim Lozovoi,100,M,Yes,Raw,B,Masters 40-44,1977-09-25,40,99.2,Russia,,,,,,-175,175,-182.5,,175,,,,,,175
2,Sergei Shamov,100,M,Yes,Raw,B,Masters 40-44,1973-08-21,44,96.7,Russia,,,,,,155,162.5,167.5,,167.5,,,,,,167.5
3,Ivan Trushtin,100,M,Yes,Raw,B,Masters 40-44,1977-05-21,40,96.8,Russia,,,,,,145,162.5,-165,,162.5,,,,,,162.5
1,Igor Lebedev,100,M,Yes,Raw,B,Masters 55-59,1962-08-03,55,100,Russia,,,,,,185,-190,190,,190,,,,,,190
1,Vladimir Bocharov,100,M,Yes,Raw,B,Masters 60-64,1956-10-07,61,97.7,Russia,,,,,,125,130,-132.5,,130,,,,,,130
1,Vladislav Makushka,110,M,Yes,Raw,B,Juniors 20-23,1995-06-15,22,108.8,Ukraine,,,,,,195,-205,-205,,195,,,,,,195
2,Aleksandr Lobanov,110,M,Yes,Raw,B,Juniors 20-23,1994-04-05,23,103.9,Russia,,,,,,162.5,167.5,170,,170,,,,,,170
1,Denis Malchikov,110,M,Yes,Raw,B,Open,1980-06-12,37,105.3,Russia,,,,,,215,225,-232.5,,225,,,,,,225
2,Dmitrii Samarianov,110,M,Yes,Raw,B,Open,1978-10-17,39,109.4,Russia,,,,,,175,-180,-180,,175,,,,,,175
3,Maksim Safin,110,M,Yes,Raw,B,Open,1983-06-24,34,105.6,Russia,,,,,,165,-170,-170,,165,,,,,,165
4,Maksim Kustov,110,M,Yes,Raw,B,Open,1985-03-25,32,109.2,Russia,,,,,,165,-170,-170,,165,,,,,,165
5,Vasilii Sukharev,110,M,Yes,Raw,B,Open,1980-06-24,37,100.9,Russia,,,,,,-155,155,-167.5,,155,,,,,,155
1,Ilia Gridnev,110,M,Yes,Raw,B,Masters 40-44,1976-06-01,41,109.9,Russia,,,,,,155,162.5,-165,,162.5,,,,,,162.5
2,Mohammadhosin Shahani,110,M,Yes,Raw,B,Masters 40-44,1977-12-12,40,110,Iran,,,,,,150,160,,,160,,,,,,160
1,Alikhan Alkhazov,110,M,Yes,Raw,B,Masters 45-49,1968-01-21,49,109.9,Russia,,,,,,-155,155,-167.5,,155,,,,,,155
1,Sergei Ivanov,110,M,Yes,Raw,B,Masters 50-54,1967-07-10,50,108.2,Russia,,,,,,180,190,-195,,190,,,,,,190
1,Igor Kurotchenko,110,M,Yes,Raw,B,Masters 55-59,1962-03-20,55,109.3,Russia,,,,,,140,150,-160,,150,,,,,,150
1,Evgenii Avdulov,125,M,Yes,Raw,B,Open,1983-11-04,34,117.5,Russia,,,,,,205,-212.5,212.5,,212.5,,,,,,212.5
1,Sergei Zakharov,125,M,Yes,Raw,B,Masters 40-44,1974-09-27,43,119.5,Russia,,,,,,180,-190,-190,,180,,,,,,180
2,Andrei Kharkivchuk,125,M,Yes,Raw,B,Masters 40-44,1973-01-30,44,113.4,Russia,,,,,,-132.5,132.5,137.5,,137.5,,,,,,137.5
1,Evgenii Kaminskii,140,M,Yes,Raw,B,Open,1988-11-05,29,125.7,Russia,,,,,,-185,185,197.5,,197.5,,,,,,197.5
2,Viacheslav Andreev,140,M,Yes,Raw,B,Open,1982-09-08,35,128.1,Russia,,,,,,175,182.5,-187.5,,182.5,,,,,,182.5
1,Konstantin Bogdanov,140,M,Yes,Raw,B,Masters 40-44,1976-05-14,41,132.5,Russia,,,,,,180,187.5,195,,195,,,,,,195
1,Hossein Majidi,140+,M,Yes,Raw,B,Open,1982-06-06,35,176.6,Iran,,,,,,-160,160,197.5,,197.5,,,,,,197.5
2,Aleksandr Nikiforov,140+,M,Yes,Raw,B,Open,1973-10-18,44,144.1,Russia,,,,,,180,-190,-190,,180,,,,,,180
3,Majid Ramezani,140+,M,Yes,Raw,B,Open,1984-04-11,33,161.8,Iran,,,,,,-165,165,-187.5,,165,,,,,,165
1,Aleksandr Nikiforov,140+,M,Yes,Raw,B,Masters 40-44,1973-10-18,44,144.1,Russia,,,,,,180,-190,-190,,180,,,,,,180
1,Tatiana Samsonova,67.5,F,Yes,Single-ply,B,Open,1983-10-03,34,66.1,Russia,,,,,,72.5,-82.5,-82.5,,72.5,,,,,,72.5
DQ,Denis Koputtsev,75,M,Yes,Single-ply,B,Open,1990-12-31,26,73.8,Russia,,,,,,-170,-170,-170,,,,,,,,
1,Vitalii Pivovarov,82.5,M,Yes,Single-ply,B,Open,1989-10-10,28,80.6,Russia,,,,,,-155,162.5,-170,,162.5,,,,,,162.5
1,Vladimir Konchakov,90,M,Yes,Single-ply,B,Open,1973-05-25,44,87.9,Russia,,,,,,250,265,275,-285,275,,,,,,275
1,Andrei Ignatov,100,M,Yes,Single-ply,B,Open,1992-02-22,25,92,Russia,,,,,,220,235,-247.5,,235,,,,,,235
2,Maksim Maslennikov,100,M,Yes,Single-ply,B,Open,1988-03-04,29,95.5,Russia,,,,,,-180,180,-190,,180,,,,,,180
1,Seyehadi Mirseyedi,110,M,Yes,Single-ply,B,Open,1986-08-09,31,103.5,Iran,,,,,,170,-195,202.5,,202.5,,,,,,202.5
1,Aleksandr Deriabin,125,M,Yes,Single-ply,B,Juniors 20-23,1997-11-03,20,120.7,Russia,,,,,,-230,230,-252.5,,230,,,,,,230
1,Mohhamad Feizollahitabrizian,140+,M,Yes,Single-ply,B,Masters 45-49,1971-09-21,46,143.1,Iran,,,,,,-220,-222.5,222.5,,222.5,,,,,,222.5
1,Irina Zenina,52,F,Yes,Multi-ply,B,Teen 15-19,2001-05-19,16,50.6,Russia,,,,,,65,-70,-70,,65,,,,,,65
1,Irina Zenina,52,F,Yes,Multi-ply,B,Open,2001-05-19,16,50.6,Russia,,,,,,65,-70,-70,,65,,,,,,65
DQ,Nikita Iakovenko,90,M,Yes,Multi-ply,B,Juniors 20-23,1995-06-03,22,88.5,Russia,,,,,,-205,-205,-205,,,,,,,,
1,Pavel Guzev,125,M,Yes,Multi-ply,B,Open,1966-05-29,51,123.6,Russia,,,,,,240,265,-280,,265,,,,,,265
1,Tatiana Gorb,52,F,Yes,Raw,D,Teen 15-19,1998-05-10,19,51.1,Russia,,,,,,,,,,,115,122.5,,,122.5,122.5
1,Liudmila Demidova,52,F,Yes,Raw,D,Juniors 20-23,1995-06-10,22,51.2,Russia,,,,,,,,,,,110,-115,117.5,,117.5,117.5
2,Anastasiia Zapolskaia,52,F,Yes,Raw,D,Juniors 20-23,1995-05-18,22,50.4,Russia,,,,,,,,,,,-95,95,102.5,,102.5,102.5
1,Margarita Galaktionova,52,F,Yes,Raw,D,Open,1991-03-01,26,52,Russia,,,,,,,,,,,140,145,150,-155,150,150
2,Olga Petrichenko,52,F,Yes,Raw,D,Open,1985-12-21,31,51.4,Russia,,,,,,,,,,,110,120,127.5,,127.5,127.5
3,Iuliia Iakunenko,52,F,Yes,Raw,D,Open,1989-07-16,28,51.8,Belarus,,,,,,,,,,,110,120,-125,,120,120
4,Liudmila Demidova,52,F,Yes,Raw,D,Open,1995-06-10,22,51.2,Russia,,,,,,,,,,,110,-115,117.5,,117.5,117.5
1,Natalia Konchakova,52,F,Yes,Raw,D,Masters 40-44,1977-08-14,40,51.3,Russia,,,,,,,,,,,-155,-157.5,157.5,,157.5,157.5
1,Nataliia Kalenova,56,F,Yes,Raw,D,Open,1989-01-31,28,53.7,Russia,,,,,,,,,,,80,85,90,,90,90
1,Elvira Fettaeva,60,F,Yes,Raw,D,Juniors 20-23,1995-08-29,22,59.5,Russia,,,,,,,,,,,115,-125,-125,,115,115
1,Iana Petelova,60,F,Yes,Raw,D,Open,1990-04-12,27,58.8,Russia,,,,,,,,,,,120,127.5,130,,130,130
1,Elena Pecherskaia,67.5,F,Yes,Raw,D,Open,1991-02-08,26,65.2,Russia,,,,,,,,,,,-140,150,-160,,150,150
1,Elena Koniushenko,75,F,Yes,Raw,D,Open,1985-03-11,32,72.1,Russia,,,,,,,,,,,140,150,-160,,150,150
2,Ekaterina Kurdiukova,75,F,Yes,Raw,D,Open,1981-10-07,36,72.5,Russia,,,,,,,,,,,100,107.5,115,,115,115
3,Irina Zmievskaia,75,F,Yes,Raw,D,Open,1988-11-17,29,70,Russia,,,,,,,,,,,85,92.5,-97.5,,92.5,92.5
1,Natalya Shapovalova,82.5,F,Yes,Raw,D,Juniors 20-23,1996-06-06,21,78.3,Russia,,,,,,,,,,,110,125,135,,135,135
1,Elena Ilina,82.5,F,Yes,Raw,D,Open,1987-04-06,30,75.7,Russia,,,,,,,,,,,95,-100,-102.5,,95,95
1,Andrei Kupriushin,56,M,Yes,Raw,D,Juniors 20-23,1997-05-17,20,53.4,Russia,,,,,,,,,,,145,155,-165,,155,155
1,Dinislam Gataev,60,M,Yes,Raw,D,Juniors 20-23,1996-10-23,21,59.4,Russia,,,,,,,,,,,215,-227.5,227.5,,227.5,227.5
2,Andrei Raznopolov,60,M,Yes,Raw,D,Juniors 20-23,1995-07-05,22,59.3,Russia,,,,,,,,,,,155,165,-175,,165,165
1,Maksim Loginov,60,M,Yes,Raw,D,Open,1982-10-08,35,59.2,Russia,,,,,,,,,,,-145,145,-152.5,,145,145
1,Ruslan Rakhmanov,67.5,M,Yes,Raw,D,Juniors 20-23,1995-08-24,22,66.6,Russia,,,,,,,,,,,210,230,-235,,230,230
1,Roman Makarov,67.5,M,Yes,Raw,D,Open,1988-05-01,29,66.1,Russia,,,,,,,,,,,-190,195,-197.5,,195,195
1,Artem Novikov,75,M,Yes,Raw,D,Teen 15-19,1999-02-13,18,73.9,Russia,,,,,,,,,,,195,207.5,-215,,207.5,207.5
2,Ali Sahabi,75,M,Yes,Raw,D,Teen 15-19,1999-09-15,18,71.9,Iran,,,,,,,,,,,-175,175,195,,195,195
1,Maksim Titov,75,M,Yes,Raw,D,Open,1992-01-06,25,74.3,Russia,,,,,,,,,,,207.5,220,-237.5,,220,220
2,Alireza Aliakbar,75,M,Yes,Raw,D,Open,1988-06-09,29,71.7,Iran,,,,,,,,,,,185,200,215,,215,215
3,Evgenii Shirokov,75,M,Yes,Raw,D,Open,1988-12-03,29,74.8,Russia,,,,,,,,,,,170,175,182.5,,182.5,182.5
1,Nikolai Obukhov,75,M,Yes,Raw,D,Masters 60-64,1953-04-02,64,74,Russia,,,,,,,,,,,-180,-180,180,,180,180
1,Vladimir Sukhinin,75,M,Yes,Raw,D,Masters 65-69,1951-04-25,66,72,Russia,,,,,,,,,,,-192.5,200,205,,205,205
1,Andrei Kuzmin,82.5,M,Yes,Raw,D,Teen 15-19,1998-12-02,19,81,Russia,,,,,,,,,,,200,-210,220,,220,220
2,Pavel Bagretsov,82.5,M,Yes,Raw,D,Teen 15-19,1999-04-27,18,81.7,Russia,,,,,,,,,,,200,210,,,210,210
1,Andrei Koghedub,82.5,M,Yes,Raw,D,Juniors 20-23,1993-12-19,23,81.9,Russia,,,,,,,,,,,235,-250,-250,,235,235
1,Sergei Stotik,82.5,M,Yes,Raw,D,Open,1990-01-23,27,82,Belarus,,,,,,,,,,,242.5,-250,-250,,242.5,242.5
2,Andrei Koghedub,82.5,M,Yes,Raw,D,Open,1993-12-19,23,81.9,Russia,,,,,,,,,,,235,-250,-250,,235,235
3,Vadim Sokolnikov,82.5,M,Yes,Raw,D,Open,1988-12-17,28,80.6,Russia,,,,,,,,,,,210,-220,220,,220,220
4,Ivan Zinnorov,82.5,M,Yes,Raw,D,Open,1991-08-20,26,79.3,Russia,,,,,,,,,,,145,-152.5,-152.5,,145,145
DQ,Dmitrii Shapilov,82.5,M,Yes,Raw,D,Masters 40-44,1975-08-06,42,80.5,Russia,,,,,,,,,,,-230,-230,,,,
1,Nazarii Kuluk,90,M,Yes,Raw,D,Juniors 20-23,1997-04-17,20,89.5,Russia,,,,,,,,,,,260,270,280,,280,280
1,Aleksei Sheikin,90,M,Yes,Raw,D,Open,1988-03-24,29,89.4,Belarus,,,,,,,,,,,-280,280,-300,,280,280
2,Aleksandr Mozghukhin,90,M,Yes,Raw,D,Open,1984-04-04,33,88.2,Russia,,,,,,,,,,,252.5,-260,-260,,252.5,252.5
3,Zhasurbek Umurzakov,90,M,Yes,Raw,D,Open,1987-03-17,30,89.5,Russia,,,,,,,,,,,215,225,235,,235,235
4,Aleksandr Gorlov,90,M,Yes,Raw,D,Open,1980-11-25,37,89.9,Russia,,,,,,,,,,,215,-225,-230,,215,215
5,Hamidreza Khoshdel,90,M,Yes,Raw,D,Open,1988-12-04,29,88.7,Iran,,,,,,,,,,,190,202.5,-215,,202.5,202.5
6,Ali Sedighfarimani,90,M,Yes,Raw,D,Open,1986-11-21,31,88,Iran,,,,,,,,,,,150,180,190,,190,190
1,Evgenii Grishin,90,M,Yes,Raw,D,Masters 50-54,1966-04-09,51,88.4,Russia,,,,,,,,,,,125,132.5,140,,140,140
1,Eldar Salakhetdinov,100,M,Yes,Raw,D,Teen 15-19,1998-08-22,19,99.6,Russia,,,,,,,,,,,265,275,-280,,275,275
1,Evgenii Fadeev,100,M,Yes,Raw,D,Juniors 20-23,1994-08-19,23,93.3,Russia,,,,,,,,,,,195,210,220,,220,220
1,Iurii Gubanov,100,M,Yes,Raw,D,Open,1987-05-04,30,97,Russia,,,,,,,,,,,260,270,-285,,270,270
2,Artiom Volunskii,100,M,Yes,Raw,D,Open,1988-04-08,29,94.4,Russia,,,,,,,,,,,210,225,240,,240,240
3,Seyed Samed Ghoreishi,100,M,Yes,Raw,D,Open,1982-08-22,35,96,Iran,,,,,,,,,,,100,110,120,,120,120
1,Aleksei Simonov,100,M,Yes,Raw,D,Masters 40-44,1973-12-08,44,95.3,Russia,,,,,,,,,,,185,210,,,210,210
1,Ashkan Soltanian,110,M,Yes,Raw,D,Juniors 20-23,1994-09-10,23,105.9,Iran,,,,,,,,,,,185,210,-215,,210,210
1,Vasilii Dovgoborets,110,M,Yes,Raw,D,Open,1990-01-25,27,105.8,Russia,,,,,,,,,,,260,272.5,282.5,,282.5,282.5
2,Abbas Mousanezhad,110,M,Yes,Raw,D,Open,1986-09-21,31,102.5,Iran,,,,,,,,,,,200,220,230,,230,230
1,Alireza Shafaghi,110,M,Yes,Raw,D,Masters 50-54,1963-03-25,54,105.4,Iran,,,,,,,,,,,200,-220,220,,220,220
1,Mikhail Liubarskii,125,M,Yes,Raw,D,Teen 15-19,2002-10-03,15,121.8,Russia,,,,,,,,,,,220,230,235,240,235,235
1,Alireza Choobi,125,M,Yes,Raw,D,Juniors 20-23,1997-08-12,20,119,Iran,,,,,,,,,,,195,-215,-215,,195,195
1,Sergei Tsurikov,125,M,Yes,Raw,D,Open,1987-06-10,30,122.1,Russia,,,,,,,,,,,305,-332.5,-332.5,,305,305
1,Gharedaghi Ahad,140,M,Yes,Raw,D,Open,1990-05-04,27,127.6,Iran,,,,,,,,,,,260,280,-300,,280,280
1,Alireza Aliakbar,75,M,Yes,Single-ply,D,Open,1988-06-09,29,71.7,Iran,,,,,,,,,,,220,-225,,,220,220
1,Roman Zverev,100,M,Yes,Single-ply,D,Open,1988-05-15,29,99.2,Russia,,,,,,,,,,,315,325,-335,,325,325
1,Ramin Farajnejadpilehroud,140,M,Yes,Single-ply,D,Open,1990-12-25,26,137.6,Iran,,,,,,,,,,,-370,-370,370,-405,370,370
