Division,WeightClassKg,Place,Name,Team,BodyweightKg,Best3SquatKg,Best3BenchKg,Best3DeadliftKg,TotalKg,Equipment,Event,Sex
Boys,51.71,1,Jesus Rios,Palacios,51.62,149.69,113.4,181.44,444.52,Single-ply,SBD,M
Boys,55.79,2,Jorge Saldana,Natalia,51.94,176.9,90.72,174.63,442.25,Single-ply,SBD,M
Boys,55.79,3,Michael Ramsey,Ranger,51.8,161.03,92.99,181.44,435.45,Single-ply,SBD,M
Boys,51.71,4,Randy Soliz,Hebbronville,50.8,167.83,86.18,170.1,424.11,Single-ply,SBD,M
Boys,51.71,5,Johney Phelps,Palestine Westwood,51.35,167.83,83.91,154.22,405.97,Single-ply,SBD,M
Boys,51.71,6,Raymon Aranda,Seagraves,50.98,147.42,81.65,170.1,399.16,Single-ply,SBD,M
Boys,51.71,7,Viator Gomez,Mertzon Irion County,51.53,154.22,83.91,140.61,378.75,Single-ply,SBD,M
Boys,51.71,8,Uriel Rodriguez,Crawford,48.26,142.88,79.38,154.22,376.48,Single-ply,SBD,M
Boys,51.71,9,Cade Flebbe,Warren,48.99,136.08,68.04,158.76,362.87,Single-ply,SBD,M
Boys,51.71,10,Steven Pham,Sunnyvale,51.53,138.35,72.57,151.95,362.87,Single-ply,SBD,M
Boys,51.71,11,Seth Solis,Troy,49.17,138.35,83.91,133.81,356.07,Single-ply,SBD,M
Boys,51.71,12,Jason Nguyen,Oakridge School,49.9,136.08,72.57,136.08,344.73,Single-ply,SBD,M
Boys,51.71,DQ,Corbin Craver,Mount Vernon,51.17,,,,,Single-ply,SBD,M
Boys,55.79,1,Max Obregon,Dilley,54.52,188.24,113.4,190.51,492.15,Single-ply,SBD,M
Boys,55.79,2,Cody Villa,Crawford,55.34,156.49,102.06,199.58,458.13,Single-ply,SBD,M
Boys,55.79,3,Keele Valenzuela,Kermit,55.16,176.9,108.86,170.1,455.86,Single-ply,SBD,M
Boys,55.79,4,Aaron Johnson,Jefferson,53.61,167.83,88.45,170.1,426.38,Single-ply,SBD,M
Boys,59.87,5,Nimo Vega,San Saba,55.97,147.42,92.99,170.1,410.5,Single-ply,SBD,M
Boys,55.79,6,Patrick Ayala,Banquete,54.25,136.08,68.04,195.04,399.16,Single-ply,SBD,M
Boys,55.79,7,Kobe Parker,Pottsboro,55.07,142.88,97.52,147.42,387.82,Single-ply,SBD,M
Boys,55.79,8,Jordan Whiteside,Peaster,55.7,138.35,95.25,151.95,385.55,Single-ply,SBD,M
Boys,55.79,9,Adam Morton,Louise,54.52,133.81,83.91,165.56,383.29,Single-ply,SBD,M
Boys,55.79,10,Cole Johnson,Colmesneil,55.16,142.88,72.57,163.29,378.75,Single-ply,SBD,M
Boys,55.79,DQ,Dang Nguyen,Amarillo Highland Park,55.34,,,,,Single-ply,SBD,M
Boys,59.87,DQ,Jacori Denmark,Hughes Springs,56.02,,,,,Single-ply,SBD,M
Boys,59.87,1,Luis Juarez,Bosqueville,59.51,204.12,120.2,204.12,528.44,Single-ply,SBD,M
Boys,59.87,2,Parth Patel,Kenedy,58.42,181.44,113.4,199.58,494.42,Single-ply,SBD,M
Boys,59.87,3,Estevan Galvan,Freer,59.15,192.78,108.86,192.78,494.42,Single-ply,SBD,M
Boys,59.87,4,Kamary Wiley,Wichita Falls City View,58.51,176.9,79.38,226.8,483.08,Single-ply,SBD,M
Boys,59.87,5,Richie Pina,Comanche,59.6,176.9,108.86,195.04,480.81,Single-ply,SBD,M
Boys,59.87,6,Jaquay Brown,Milford,59.78,185.97,95.25,176.9,458.13,Single-ply,SBD,M
Boys,59.87,7,Adam Martin,Sudan,58.6,181.44,90.72,183.7,455.86,Single-ply,SBD,M
Boys,67.13,8,Zack Montgomery,Jacksboro,60.06,170.1,77.11,197.31,444.52,Single-ply,SBD,M
Boys,59.87,9,Cambry Gilbert,Post,59.33,165.56,90.72,181.44,437.72,Single-ply,SBD,M
Boys,59.87,DQ,Dylan Gibson,Maud,59.06,190.51,,,,Single-ply,SBD,M
Boys,59.87,NS,Michael Latapie,Palacios,,,,,,Single-ply,SBD,M
Boys,59.87,NS,Trenton Thedford,Vanderbilt Industrial,,,,,,Single-ply,SBD,M
Boys,67.13,1,Jordan Ruiz,Seagraves,66.77,260.82,161.03,258.55,680.39,Single-ply,SBD,M
Boys,67.13,2,Arnold Bednorz,Freer,65.41,233.6,145.15,217.72,596.47,Single-ply,SBD,M
Boys,67.13,3,Michael Vargas,Ozona,65.68,242.67,120.2,226.8,589.67,Single-ply,SBD,M
Boys,74.84,4,Olice Rogers,Kemp,67.22,226.8,131.54,219.99,578.33,Single-ply,SBD,M
Boys,67.13,5,Kelton Dethloff,Paradise,65.05,226.8,127.01,217.72,571.53,Single-ply,SBD,M
Boys,67.13,6,Cody DeFore,Elkhart,66.86,217.72,124.74,224.53,566.99,Single-ply,SBD,M
Boys,67.13,7,Dylan Haralson,Axtell,66.04,217.72,95.25,235.87,548.85,Single-ply,SBD,M
Boys,67.13,8,Josh Boone,Winnsboro,65.14,217.72,129.27,192.78,539.77,Single-ply,SBD,M
Boys,67.13,9,Walker Shelton,Tolar,66.86,210.92,106.59,210.92,528.44,Single-ply,SBD,M
Boys,67.13,10,Ivan Karabonoff,Peaster,65.77,195.04,99.79,204.12,498.95,Single-ply,SBD,M
Boys,67.13,11,Osvaldo Sardina,Danbury,65.95,165.56,102.06,190.51,458.13,Single-ply,SBD,M
Boys,67.13,12,Haden Campbell,Kountze,65.77,161.03,111.13,179.17,451.32,Single-ply,SBD,M
Boys,74.84,DQ,Drew Haas,Hallettsville,67.31,226.8,,,,Single-ply,SBD,M
Boys,67.13,DQ,Jared Arey,Teague,65.5,,,,,Single-ply,SBD,M
Boys,74.84,1,Kneeland Donnelly,Hawley,72.94,274.42,165.56,233.6,673.58,Single-ply,SBD,M
Boys,74.84,2,Coy Jorden,Teague,72.67,263.08,156.49,244.94,664.51,Single-ply,SBD,M
Boys,74.84,3,Jesse Herd,Jacksboro,73.3,219.99,151.95,247.21,619.15,Single-ply,SBD,M
Boys,74.84,4,Ty Slaughter,Whitesboro,71.03,238.14,145.15,224.53,607.81,Single-ply,SBD,M
Boys,74.84,5,Jonathan Gonzalez,San Diego,73.21,235.87,149.69,222.26,607.81,Single-ply,SBD,M
Boys,74.84,6,Craig Wells,San Antonio Brooks Academy,74.3,219.99,140.61,244.94,605.55,Single-ply,SBD,M
Boys,74.84,7,Aaron Castillo,Rankin,74.66,208.65,156.49,240.4,605.55,Single-ply,SBD,M
Boys,74.84,8,Jace Thomas,Newton,73.12,210.92,138.35,254.01,603.28,Single-ply,SBD,M
Boys,74.84,9,Chanse Alexander,Oakridge School,74.12,238.14,120.2,244.94,603.28,Single-ply,SBD,M
Boys,74.84,10,Keith Volpitta,Winnie East Chambers,74.12,222.26,140.61,222.26,585.13,Single-ply,SBD,M
Boys,74.84,11,Aaron Serrato,Freer,70.67,217.72,136.08,226.8,580.6,Single-ply,SBD,M
Boys,74.84,12,Tanner Johnson,Whitesboro,73.57,238.14,108.86,233.6,580.6,Single-ply,SBD,M
Boys,82.1,13,Tristan Dudley,Rogers,75.02,204.12,154.22,215.46,573.79,Single-ply,SBD,M
Boys,74.84,14,Devyn Hebbe,Axtell,73.57,235.87,104.33,213.19,553.38,Single-ply,SBD,M
Boys,74.84,15,Chris Box,Elkhart,71.76,213.19,133.81,199.58,546.58,Single-ply,SBD,M
Boys,74.84,DQ,Joaquin Lopez,Howe,74.39,222.26,127.01,,,Single-ply,SBD,M
Boys,82.1,1,Luke Bowling,Santo,79.83,263.08,145.15,294.84,703.07,Single-ply,SBD,M
Boys,82.1,2,Carlos Charles,Bishop,78.93,272.16,167.83,260.82,700.8,Single-ply,SBD,M
Boys,82.1,3,Ricky Benavidez,Banquete,78.65,240.4,192.78,256.28,689.46,Single-ply,SBD,M
Boys,82.1,4,Brett Boles,McGregor,80.65,265.35,163.29,251.74,680.39,Single-ply,SBD,M
Boys,82.1,5,Oziel Rios,Palacios,81.1,240.4,183.7,231.33,655.44,Single-ply,SBD,M
Boys,82.1,6,Tavion Hall,Kerens,80.01,226.8,136.08,254.01,616.89,Single-ply,SBD,M
Boys,82.1,7,Seth Rogers,Jacksboro,75.48,233.6,145.15,231.33,610.08,Single-ply,SBD,M
Boys,82.1,8,Zack Gray,Elkhart,80.38,249.48,133.81,226.8,610.08,Single-ply,SBD,M
Boys,82.1,9,Saul Lopez,Comanche,80.83,238.14,156.49,213.19,607.81,Single-ply,SBD,M
Boys,89.81,10,Rudy Rodriguez,Dublin,82.33,240.4,127.01,238.14,605.55,Single-ply,SBD,M
Boys,82.1,11,Cristopher Stallings,Kermit,79.2,208.65,145.15,235.87,589.67,Single-ply,SBD,M
Boys,82.1,12,James Bradford,Troy,81.74,213.19,151.95,222.26,587.4,Single-ply,SBD,M
Boys,82.1,13,Tj Combs,Hitchcock,81.74,217.72,131.54,233.6,582.87,Single-ply,SBD,M
Boys,82.1,DQ,Joe Melendez,Coahoma,81.37,,,,,Single-ply,SBD,M
Boys,82.1,NS,Anthony Garza,Falfurrias,,,,,,Single-ply,SBD,M
Boys,89.81,1,Isaiah Martinez,Commerce,89.27,312.98,183.7,244.94,741.62,Single-ply,SBD,M
Boys,89.81,2,Brody Jones,Crawford,87.91,281.23,185.97,256.28,723.48,Single-ply,SBD,M
Boys,89.81,3,Joe Estrada,Jourdanton,88.18,299.37,188.24,235.87,723.48,Single-ply,SBD,M
Boys,89.81,4,Andrew Garza,Falfurrias,89.27,265.35,163.29,281.23,709.87,Single-ply,SBD,M
Boys,89.81,5,Aaron Chavarria,Floydada,88.27,290.3,161.03,256.28,707.6,Single-ply,SBD,M
Boys,89.81,6,John Groff,Pilot Point,88.09,276.69,165.56,244.94,687.19,Single-ply,SBD,M
Boys,89.81,7,John Cuellar,Ballinger,88.81,260.82,158.76,238.14,657.71,Single-ply,SBD,M
Boys,89.81,8,MarcJavion McGrew,Hearne,89.36,254.01,142.88,249.48,646.37,Single-ply,SBD,M
Boys,89.81,9,Felipe Amaro,Laird Hill Leveretts Chapel,89.81,272.16,136.08,213.19,621.42,Single-ply,SBD,M
Boys,89.81,10,Elijah Gooden,Boling,84.82,247.21,136.08,226.8,610.08,Single-ply,SBD,M
Boys,89.81,11,Angel Aguilera,Big Lake Reagan County,89.27,238.14,131.54,238.14,607.81,Single-ply,SBD,M
Boys,89.81,12,Caleb Sims,Winnie East Chambers,89.63,226.8,151.95,226.8,605.55,Single-ply,SBD,M
Boys,89.81,13,Taylor Edwards,Paradise,85.28,217.72,156.49,215.46,589.67,Single-ply,SBD,M
Boys,99.79,1,Matt Garcia,Ben Bolt-Palito Blanco,97.7,294.84,235.87,285.76,816.47,Single-ply,SBD,M
Boys,99.79,2,Auggie Woodruff,Ballinger,97.16,317.51,190.51,258.55,766.57,Single-ply,SBD,M
Boys,99.79,3,Johne Beebe,Lago Vista,97.07,226.8,147.42,301.64,675.85,Single-ply,SBD,M
Boys,99.79,4,Roland Zamora,Meadow,94.35,267.62,154.22,247.21,669.05,Single-ply,SBD,M
Boys,99.79,5,Thomas Morales,Whitesboro,97.43,267.62,156.49,244.94,669.05,Single-ply,SBD,M
Boys,99.79,6,Isiah Myers,Newton,99.43,240.4,147.42,272.16,659.98,Single-ply,SBD,M
Boys,99.79,7,Brandon Bruce,Rogers,96.16,272.16,151.95,233.6,657.71,Single-ply,SBD,M
Boys,99.79,8,Miguel Olvera,San Diego,98.7,258.55,151.95,244.94,655.44,Single-ply,SBD,M
Boys,99.79,9,Ej Lozada,Jacksboro,96.25,242.67,133.81,274.42,650.91,Single-ply,SBD,M
Boys,99.79,10,Austin Hanson,Jacksboro,94.53,233.6,151.95,254.01,639.57,Single-ply,SBD,M
Boys,99.79,11,Bryan Winburn,Winnsboro,98.88,249.48,151.95,226.8,628.23,Single-ply,SBD,M
Boys,99.79,12,George Anthony,New London West Rusk,97.7,226.8,147.42,251.74,625.96,Single-ply,SBD,M
Boys,99.79,13,Haden Armstrong,Corrigan-Camden,91.99,226.8,156.49,240.4,623.69,Single-ply,SBD,M
Boys,109.77,1,Enrique Lugo,Jourdanton,107.68,347,242.67,297.1,886.77,Single-ply,SBD,M
Boys,109.77,2,Mark Bocanegra,Jourdanton,102.6,312.98,174.63,240.4,728.02,Single-ply,SBD,M
Boys,109.77,3,Anthony Hadnot,Newton,105.78,290.3,149.69,288.03,728.02,Single-ply,SBD,M
Boys,109.77,4,Collin McMillan,Little River Academy,105.96,258.55,185.97,283.5,728.02,Single-ply,SBD,M
Boys,109.77,5,Pj Caparelli,Bowie,104.96,294.84,165.56,265.35,725.75,Single-ply,SBD,M
Boys,109.77,6,Brendon Breland,Banquete,104.51,294.84,174.63,249.48,718.94,Single-ply,SBD,M
Boys,109.77,7,Kal Metcalf,Shelbyville,105.32,306.17,154.22,254.01,714.41,Single-ply,SBD,M
Boys,109.77,8,Josue Damian,Ozona,106.05,278.96,142.88,281.23,703.07,Single-ply,SBD,M
Boys,109.77,9,Jordon Stokes,Clyde,102.78,276.69,170.1,249.48,696.26,Single-ply,SBD,M
Boys,109.77,10,Leal Sample,Scurry-Rosser,105.05,249.48,172.37,263.08,684.92,Single-ply,SBD,M
Boys,109.77,11,Kirkland Weaver,Brady,104.05,272.16,136.08,213.19,621.42,Single-ply,SBD,M
Boys,109.77,DQ,Juan Lopez,Winnie East Chambers,107.5,263.08,,,,Single-ply,SBD,M
Boys,109.77,DQ,Kirk Weldon,Jacksboro,101.15,224.53,131.54,,,Single-ply,SBD,M
Boys,124.74,1,Lee Cook,Ben Bolt-Palito Blanco,112.13,317.51,192.78,290.3,800.59,Single-ply,SBD,M
Boys,124.74,2,Chris Aivaliotis,Ponder,122.38,340.19,192.78,267.62,800.59,Single-ply,SBD,M
Boys,124.74,3,Matthew Busby,Lone Oak,124.38,317.51,192.78,265.35,775.64,Single-ply,SBD,M
Boys,124.74,4,Austin Speed,Goliad,121.47,317.51,181.44,265.35,764.3,Single-ply,SBD,M
Boys,124.74,5,John Brock,Henrietta,124.38,322.05,190.51,249.48,762.04,Single-ply,SBD,M
Boys,124.74,6,Ryan Mitchell,Teague,117.57,303.91,183.7,265.35,752.96,Single-ply,SBD,M
Boys,124.74,7,Trent Andrews,Bosqueville,121.56,303.91,147.42,294.84,746.16,Single-ply,SBD,M
Boys,124.74,8,Celso Guerrero,Childress,123.47,281.23,199.58,249.48,730.28,Single-ply,SBD,M
Boys,124.74,9,Peyton Womack,Salado,117.03,294.84,154.22,238.14,687.19,Single-ply,SBD,M
Boys,124.74,10,Dave Lewis,Newton,114.12,256.28,154.22,272.16,682.66,Single-ply,SBD,M
Boys,124.74,11,Jeremiah DeLeon,Tahoka,117.66,249.48,181.44,199.58,630.49,Single-ply,SBD,M
Boys,124.74,12,Mason Davis,Vanderbilt Industrial,113.76,235.87,147.42,233.6,616.89,Single-ply,SBD,M
Boys,124.74+,1,Edgar Guerrero,Friona,133.99,335.66,185.97,324.32,845.95,Single-ply,SBD,M
Boys,124.74+,2,Jessie Wilson,Whitney,151.41,317.51,238.14,290.3,845.95,Single-ply,SBD,M
Boys,124.74+,3,Lorenzo Walker,Holland,155.04,340.19,185.97,235.87,762.04,Single-ply,SBD,M
Boys,124.74+,4,Shakeim Woodberry,Clarksville,132.09,294.84,185.97,254.01,734.82,Single-ply,SBD,M
Boys,124.74+,5,Dillon Gage,Sadler S & S Cons,130.09,285.76,215.46,215.46,716.68,Single-ply,SBD,M
Boys,124.74+,6,Trent Enriquez,Karnes City,142.16,283.5,181.44,251.74,716.68,Single-ply,SBD,M
Boys,124.74+,7,Rj Gonzales,Altair Rice,126.37,294.84,161.03,249.48,705.34,Single-ply,SBD,M
Boys,124.74+,8,Kyle Weiss #1,Panhandle,140.7,249.48,208.65,238.14,696.26,Single-ply,SBD,M
Boys,124.74+,9,Thomas Waite,Ponder,126.92,299.37,161.03,226.8,687.19,Single-ply,SBD,M
Boys,124.74+,10,Trey Villareal,Diana New Diana,146.69,256.28,149.69,272.16,678.12,Single-ply,SBD,M
Boys,124.74+,11,Gaylan Steubing,Warren,126.73,238.14,156.49,224.53,619.15,Single-ply,SBD,M
Boys,124.74+,12,Merel Bunfill,Hardin,144.24,267.62,131.54,217.72,616.89,Single-ply,SBD,M
